dr3/tp2/sim/build/tb_tp2_sequence_validator.vcd
$date
	Sun May  3 23:06:18 2026
$end
$version
	Icarus Verilog
$end
$timescale
	1ps
$end
$scope module tb_tp2_sequence_validator $end
$var wire 1 ! seg_g $end
$var wire 1 " seg_f $end
$var wire 1 # seg_e $end
$var wire 1 $ seg_d $end
$var wire 1 % seg_c $end
$var wire 1 & seg_b $end
$var wire 1 ' seg_a $end
$var wire 4 ( led_n [3:0] $end
$var reg 4 ) btn_n [3:0] $end
$var reg 1 * sys_clk $end
$var reg 1 + sys_rst_n $end
$var integer 32 , errors [31:0] $end
$scope module dut $end
$var wire 4 - btn_n [3:0] $end
$var wire 1 . core_rst_n $end
$var wire 1 * sys_clk $end
$var wire 1 + sys_rst_n $end
$var wire 4 / success_tens [3:0] $end
$var wire 2 0 success_phase_debug [1:0] $end
$var wire 4 1 success_ones [3:0] $end
$var wire 1 2 success_active $end
$var wire 2 3 step_debug [1:0] $end
$var wire 4 4 state_debug [3:0] $end
$var wire 1 ! seg_g $end
$var wire 1 " seg_f $end
$var wire 1 # seg_e $end
$var wire 1 $ seg_d $end
$var wire 1 % seg_c $end
$var wire 7 5 seg_bus [6:0] $end
$var wire 1 & seg_b $end
$var wire 1 ' seg_a $end
$var wire 1 6 pll_lock $end
$var wire 4 7 led_n [3:0] $end
$var wire 4 8 final_display_value [3:0] $end
$var wire 1 9 final_display_success $end
$var wire 1 : final_display_error $end
$var wire 1 ; dsp_valid $end
$var wire 1 < dsp_clear $end
$var wire 16 = dsp_b [15:0] $end
$var wire 32 > dsp_acc [31:0] $end
$var wire 16 ? dsp_a [15:0] $end
$var wire 1 @ core_clk $end
$var wire 8 A checksum_debug [7:0] $end
$var wire 4 B button_pulse [3:0] $end
$var wire 4 C button_pressed [3:0] $end
$var wire 1 D bram_we $end
$var wire 1 E bram_en $end
$var wire 16 F bram_dout [15:0] $end
$var wire 16 G bram_din [15:0] $end
$var wire 4 H bram_addr [3:0] $end
$var wire 4 I base_display_value [3:0] $end
$var wire 1 J base_display_error $end
$scope begin button_inputs[0] $end
$scope module button_conditioner_inst $end
$var wire 1 K raw_n $end
$var wire 1 . rst_n $end
$var wire 1 L sampled_pressed $end
$var wire 1 @ clk $end
$var reg 2 M debounce_count [1:0] $end
$var reg 1 N pressed $end
$var reg 1 O pressed_pulse $end
$var reg 1 P sync_0 $end
$var reg 1 Q sync_1 $end
$upscope $end
$upscope $end
$scope begin button_inputs[1] $end
$scope module button_conditioner_inst $end
$var wire 1 R raw_n $end
$var wire 1 . rst_n $end
$var wire 1 S sampled_pressed $end
$var wire 1 @ clk $end
$var reg 2 T debounce_count [1:0] $end
$var reg 1 U pressed $end
$var reg 1 V pressed_pulse $end
$var reg 1 W sync_0 $end
$var reg 1 X sync_1 $end
$upscope $end
$upscope $end
$scope begin button_inputs[2] $end
$scope module button_conditioner_inst $end
$var wire 1 Y raw_n $end
$var wire 1 . rst_n $end
$var wire 1 Z sampled_pressed $end
$var wire 1 @ clk $end
$var reg 2 [ debounce_count [1:0] $end
$var reg 1 \ pressed $end
$var reg 1 ] pressed_pulse $end
$var reg 1 ^ sync_0 $end
$var reg 1 _ sync_1 $end
$upscope $end
$upscope $end
$scope begin button_inputs[3] $end
$scope module button_conditioner_inst $end
$var wire 1 ` raw_n $end
$var wire 1 . rst_n $end
$var wire 1 a sampled_pressed $end
$var wire 1 @ clk $end
$var reg 2 b debounce_count [1:0] $end
$var reg 1 c pressed $end
$var reg 1 d pressed_pulse $end
$var reg 1 e sync_0 $end
$var reg 1 f sync_1 $end
$upscope $end
$upscope $end
$scope module dsp_mac_inst $end
$var wire 1 . rst_n $end
$var wire 1 ; valid $end
$var wire 32 g product [31:0] $end
$var wire 1 @ clk $end
$var wire 1 < clear $end
$var wire 16 h b [15:0] $end
$var wire 16 i a [15:0] $end
$var reg 32 j acc [31:0] $end
$upscope $end
$scope module pll_wrapper_inst $end
$var wire 1 * clkin $end
$var wire 1 @ clkout $end
$var wire 1 + reset_n $end
$var wire 1 6 lock $end
$var reg 1 k clk_div2 $end
$var reg 8 l lock_count [7:0] $end
$var reg 1 6 lock_reg $end
$upscope $end
$scope module result_display_mux_inst $end
$var wire 1 @ clk $end
$var wire 1 . rst_n $end
$var wire 4 m success_tens [3:0] $end
$var wire 4 n success_ones [3:0] $end
$var wire 1 2 success_active $end
$var wire 4 o base_value [3:0] $end
$var wire 1 J base_error $end
$var reg 1 : display_error $end
$var reg 1 9 display_success $end
$var reg 4 p display_value [3:0] $end
$var reg 2 q phase_debug [1:0] $end
$var reg 2 r tick_count [1:0] $end
$upscope $end
$scope module sequence_fsm_inst $end
$var wire 4 s button_pulse [3:0] $end
$var wire 8 t checksum_debug [7:0] $end
$var wire 1 @ clk $end
$var wire 32 u dsp_acc [31:0] $end
$var wire 1 . rst_n $end
$var wire 4 v state_debug [3:0] $end
$var wire 2 w step_debug [1:0] $end
$var wire 16 x bram_dout [15:0] $end
$var reg 4 y bram_addr [3:0] $end
$var reg 16 z bram_din [15:0] $end
$var reg 1 E bram_en $end
$var reg 1 D bram_we $end
$var reg 2 { captured_button [1:0] $end
$var reg 8 | checksum_value [7:0] $end
$var reg 1 J display_error $end
$var reg 4 } display_value [3:0] $end
$var reg 16 ~ dsp_a [15:0] $end
$var reg 16 !" dsp_b [15:0] $end
$var reg 1 < dsp_clear $end
$var reg 1 ; dsp_valid $end
$var reg 2 "" init_index [1:0] $end
$var reg 2 #" input_index [1:0] $end
$var reg 4 $" led_n [3:0] $end
$var reg 2 %" next_captured_button [1:0] $end
$var reg 8 &" next_checksum_value [7:0] $end
$var reg 2 '" next_init_index [1:0] $end
$var reg 2 (" next_input_index [1:0] $end
$var reg 2 )" next_score_index [1:0] $end
$var reg 2 *" next_show_index [1:0] $end
$var reg 4 +" next_show_tick_count [3:0] $end
$var reg 4 ," next_state [3:0] $end
$var reg 2 -" score_index [1:0] $end
$var reg 2 ." show_index [1:0] $end
$var reg 4 /" show_tick_count [3:0] $end
$var reg 4 0" state [3:0] $end
$var reg 1 2 success_active $end
$var reg 4 1" success_ones [3:0] $end
$var reg 4 2" success_tens [3:0] $end
$scope function is_onehot $end
$var reg 4 3" value [3:0] $end
$upscope $end
$scope function pulse_to_index $end
$var reg 4 4" value [3:0] $end
$upscope $end
$scope function sequence_at $end
$var reg 2 5" index [1:0] $end
$upscope $end
$upscope $end
$scope module seven_segment_decoder_inst $end
$var wire 1 : error $end
$var wire 1 9 success $end
$var wire 4 6" value [3:0] $end
$var reg 7 7" seg [6:0] $end
$upscope $end
$scope module sync_bram_inst $end
$var wire 4 8" addr [3:0] $end
$var wire 1 @ clk $end
$var wire 16 9" din [15:0] $end
$var wire 1 E en $end
$var wire 1 D we $end
$var reg 16 :" dout [15:0] $end
$var integer 32 ;" index [31:0] $end
$upscope $end
$upscope $end
$scope task check $end
$var reg 1 <" condition $end
$var reg 1024 =" message [1023:0] $end
$upscope $end
$scope task do_reset $end
$upscope $end
$scope task press_button $end
$var reg 2 >" index [1:0] $end
$upscope $end
$scope task press_mask $end
$var reg 4 ?" mask [3:0] $end
$upscope $end
$scope task test_error_on_wrong_input $end
$upscope $end
$scope task test_pll_and_bram_initialization $end
$upscope $end
$scope task test_reset_restarts_after_error $end
$upscope $end
$scope task test_show_sequence_from_bram $end
$upscope $end
$scope task test_simultaneous_buttons $end
$upscope $end
$scope task test_success_path_and_checksum $end
$upscope $end
$scope task wait_for_input_phase $end
$upscope $end
$scope task wait_for_state $end
$var reg 4 @" target_state [3:0] $end
$var integer 32 A" timeout [31:0] $end
$upscope $end
$scope task wait_for_success_phase $end
$var reg 2 B" target_phase [1:0] $end
$var integer 32 C" timeout [31:0] $end
$upscope $end
$upscope $end
$enddefinitions $end
#0
$dumpvars
bx C"
bx B"
bx A"
bx @"
bx ?"
bx >"
bx ="
x<"
b10000 ;"
b0 :"
b0 9"
b0 8"
b111111 7"
b0 6"
bx 5"
bx 4"
bx 3"
b0 2"
b0 1"
b0 0"
b0 /"
b0 ."
b0 -"
b1 ,"
b0 +"
b0 *"
b0 )"
b0 ("
b0 '"
b0 &"
b0 %"
b1111 $"
b0 #"
b0 ""
b0 !"
b0 ~
b0 }
b0 |
b0 {
b0 z
b0 y
b0 x
b0 w
b0 v
b0 u
b0 t
b0 s
b0 r
b0 q
b0 p
b0 o
b0 n
b0 m
b0 l
0k
b0 j
b0 i
b0 h
b0 g
1f
1e
0d
0c
b0 b
0a
1`
1_
1^
0]
0\
b0 [
0Z
1Y
1X
1W
0V
0U
b0 T
0S
1R
1Q
1P
0O
0N
b0 M
0L
1K
0J
b0 I
b0 H
b0 G
b0 F
0E
0D
b0 C
b0 B
b0 A
0@
b0 ?
b0 >
b0 =
0<
0;
0:
09
b0 8
b1111 7
06
b111111 5
b0 4
b0 3
02
b0 1
b0 0
b0 /
0.
b1111 -
b0 ,
0+
0*
b1111 )
b1111 (
1'
1&
1%
1$
1#
1"
0!
$end
#5000
1*
#10000
0*
#15000
1*
#20000
0*
#25000
1*
#30000
0*
#35000
b1 l
1@
1k
1+
b1100011011011110111001001100101001000000111001001100101011100110110010101110100001000000111001101110100011000010111100101110011001000000110000101110011011100110110010101110010011101000110010101100100001000000110001001100101011001100110111101110010011001010010000001101100011011110110001101101011 ="
1<"
1*
#40000
0*
#45000
b10 l
0@
0k
1*
#50000
0*
#55000
b11 l
1@
1k
1*
#60000
0*
#65000
1.
16
0@
0k
1*
#66000
b0 A"
b10 @"
b1100011011011110111001001100101001000000111001001100101011100110110010101110100001000000111001001100101011011000110010101100001011100110110010101110011001000000110000101100110011101000110010101110010001000000111000001101100011011000010000001101100011011110110001101101011 ="
#70000
0*
#75000
b0 5"
1D
1E
b1 '"
b1 4
b1 v
b1 0"
b1 A"
1@
1k
1*
#80000
0*
#85000
0@
0k
1*
#90000
0*
#95000
b10 G
b10 z
b10 9"
b1 5"
b1 H
b1 y
b1 8"
1D
1E
b10 '"
b1 ""
b10 A"
1@
1k
1*
#100000
0*
#105000
0@
0k
1*
#110000
0*
#115000
b10 5"
b1 G
b1 z
b1 9"
b10 H
b10 y
b10 8"
1D
1E
b11 '"
b10 ""
b11 A"
1@
1k
1*
#120000
0*
#125000
0@
0k
1*
#130000
0*
#135000
b11 5"
b11 G
b11 z
b11 9"
b11 H
b11 y
b11 8"
1D
1E
b0 '"
b10 ,"
b11 ""
b100 A"
1@
1k
1*
#140000
0*
#145000
0@
0k
1*
#150000
0*
#155000
b0 G
b0 z
b0 9"
b0 H
b0 y
b0 8"
0D
1E
b11 ,"
b0 ""
b10 4
b10 v
b10 0"
b101 A"
1@
1k
1*
#160000
0*
#165000
0@
0k
1*
#170000
0*
#175000
0E
b1 ,"
b0 l
06
b0 4
b0 v
b0 0"
0.
0+
b11000100111001001100001011011010010000001110011011011000110111101110100001000000011001100100000011010010110111001101001011101000110100101100001011011000110100101111010011001010110010000100000011101110110100101110100011010000010000001001100010001010100010000110011 ="
b110 A"
0@
0k
1*
#180000
0*
#185000
1*
#190000
0*
#195000
1*
#200000
0*
#205000
1*
#210000
0*
#215000
b1 l
1@
1k
1+
1*
#220000
0*
#225000
b10 l
0@
0k
1*
#230000
0*
#235000
b11 l
1@
1k
1*
#240000
0*
#245000
1.
16
0@
0k
1*
#250000
0*
#255000
b0 5"
1D
1E
b1 '"
b1 4
b1 v
b1 0"
1@
1k
1*
#260000
0*
#265000
0@
0k
1*
#270000
0*
#275000
b10 G
b10 z
b10 9"
b1 5"
b1 H
b1 y
b1 8"
1D
1E
b10 '"
b1 ""
b0 A"
b11 @"
1@
1k
1*
#280000
0*
#285000
0@
0k
1*
#290000
0*
#295000
b10 5"
b1 G
b1 z
b1 9"
b10 H
b10 y
b10 8"
1D
1E
b11 '"
b10 F
b10 x
b10 :"
b10 ""
b1 A"
1@
1k
1*
#300000
0*
#305000
0@
0k
1*
#310000
0*
#315000
b11 5"
b11 G
b11 z
b11 9"
b11 H
b11 y
b11 8"
1D
1E
b0 '"
b10 ,"
b1 F
b1 x
b1 :"
b11 ""
b10 A"
1@
1k
1*
#320000
0*
#325000
0@
0k
1*
#330000
0*
#335000
b0 G
b0 z
b0 9"
b0 H
b0 y
b0 8"
0D
1E
b11 ,"
b11 F
b11 x
b11 :"
b0 ""
b10 4
b10 v
b10 0"
b11 A"
1@
1k
1*
#340000
0*
#345000
0@
0k
1*
#350000
0*
#355000
0"
0#
0$
0'
b110 5
b110 7"
b1 8
b1 p
b1 6"
b1 I
b1 o
b1 }
b1110 (
b1110 7
b1110 $"
0E
b1 +"
b0 F
b0 x
b0 :"
b11 4
b11 v
b11 0"
b100 A"
1@
1k
1*
#360000
0*
#365000
0@
0k
1*
#370000
0*
#375000
b10 +"
b1 /"
b11100110110100001101111011101110010000001110011011101000110010101110000001000000011000100100000011011000110100101100111011010000111010001110011001000000100110001000101010001000011000000100000011001100111001001101111011011010010000001000010010100100100000101001101 ="
b101 A"
1@
1k
1*
#380000
0*
#385000
0@
0k
1*
#390000
0*
#395000
b10 ,"
b1 *"
b0 +"
b10 /"
1@
1k
1*
#400000
0*
#405000
0@
0k
1*
#410000
0*
#415000
1"
1#
1$
1'
b111111 5
b111111 7"
b0 8
b0 p
b0 6"
b1 H
b1 y
b1 8"
1E
b0 I
b0 o
b0 }
b1111 (
b1111 7
b1111 $"
b11 ,"
b0 /"
b1 ."
b10 4
b10 v
b10 0"
1@
1k
1*
#420000
0*
#425000
0@
0k
1*
#430000
0*
#435000
1!
0"
0%
b1011011 5
b1011011 7"
b10 8
b10 p
b10 6"
b10 I
b10 o
b10 }
b1011 (
b1011 7
b1011 $"
b0 H
b0 y
b0 8"
0E
b1 +"
b10 F
b10 x
b10 :"
b11 4
b11 v
b11 0"
1@
1k
1*
#440000
0*
#445000
0@
0k
1*
#450000
0*
#455000
b10 +"
b1 /"
b11100110110100001101111011101110010000001110011011101000110010101110000001000000011001000100000011011000110100101100111011010000111010001110011001000000100110001000101010001000011001000100000011001100111001001101111011011010010000001000010010100100100000101001101 ="
b0 A"
1@
1k
1*
#460000
0*
#465000
0@
0k
1*
#470000
0*
#475000
b10 ,"
b10 *"
b0 +"
b10 /"
1@
1k
1*
#480000
0*
#485000
0@
0k
1*
#490000
0*
#495000
0!
1"
1%
b111111 5
b111111 7"
b0 8
b0 p
b0 6"
b10 H
b10 y
b10 8"
1E
b0 I
b0 o
b0 }
b1111 (
b1111 7
b1111 $"
b11 ,"
b0 /"
b10 ."
b10 4
b10 v
b10 0"
1@
1k
1*
#500000
0*
#505000
0@
0k
1*
#510000
0*
#515000
1!
0"
0#
b1001111 5
b1001111 7"
b11 8
b11 p
b11 6"
b11 I
b11 o
b11 }
b1101 (
b1101 7
b1101 $"
b0 H
b0 y
b0 8"
0E
b1 +"
b1 F
b1 x
b1 :"
b11 4
b11 v
b11 0"
1@
1k
1*
#520000
0*
#525000
0@
0k
1*
#530000
0*
#535000
b10 +"
b1 /"
b11100110110100001101111011101110010000001110011011101000110010101110000001000000011001100100000011011000110100101100111011010000111010001110011001000000100110001000101010001000011000100100000011001100111001001101111011011010010000001000010010100100100000101001101 ="
1@
1k
1*
#540000
0*
#545000
0@
0k
1*
#550000
0*
#555000
b10 ,"
b11 *"
b0 +"
b10 /"
1@
1k
1*
#560000
0*
#565000
0@
0k
1*
#570000
0*
#575000
0!
1"
1#
b111111 5
b111111 7"
b0 8
b0 p
b0 6"
b11 H
b11 y
b11 8"
1E
b0 I
b0 o
b0 }
b1111 (
b1111 7
b1111 $"
b11 ,"
b0 /"
b11 ."
b10 4
b10 v
b10 0"
1@
1k
1*
#580000
0*
#585000
0@
0k
1*
#590000
0*
#595000
1!
0#
0$
0'
b1100110 5
b1100110 7"
b100 8
b100 p
b100 6"
b100 I
b100 o
b100 }
b111 (
b111 7
b111 $"
b0 H
b0 y
b0 8"
0E
b1 +"
b11 F
b11 x
b11 :"
b11 4
b11 v
b11 0"
1@
1k
1*
#600000
0*
#605000
0@
0k
1*
#610000
0*
#615000
b10 +"
b1 /"
b100 @"
b11100110110100001101111011101110010000001110011011101000110010101110000001000000011010000100000011011000110100101100111011010000111010001110011001000000100110001000101010001000011001100100000011001100111001001101111011011010010000001000010010100100100000101001101 ="
1@
1k
1*
#620000
0*
#625000
0@
0k
1*
#630000
0*
#635000
b0 *"
b100 ,"
b0 +"
b10 /"
b1 A"
1@
1k
1*
#640000
0*
#645000
0@
0k
1*
#650000
0*
#655000
0!
1#
1$
1'
b111111 5
b111111 7"
b0 8
b0 p
b0 6"
b0 I
b0 o
b0 }
b1111 (
b1111 7
b1111 $"
b0 /"
b0 ."
b100 4
b100 v
b100 0"
b10 A"
1@
1k
1*
#660000
0*
#665000
0@
0k
1*
#670000
0*
#675000
b1 ,"
b0 4
b0 v
b0 0"
b0 l
06
0.
0+
b11000010110110001101100001000000110110001100101011001000111001100100000011011110110011001100110001000000111011101101000011010010110110001100101001000000111011101100001011010010111010001101001011011100110011100100000011001100110111101110010001000000110100101101110011100000111010101110100 ="
b11 A"
0@
0k
1*
#680000
0*
#685000
1*
#690000
0*
#695000
1*
#700000
0*
#705000
1*
#710000
0*
#715000
b1 l
1@
1k
1+
1*
#720000
0*
#725000
b10 l
0@
0k
1*
#730000
0*
#735000
b11 l
1@
1k
1*
#740000
0*
#745000
1.
16
0@
0k
1*
#750000
0*
#755000
b0 5"
1D
1E
b1 '"
b1 4
b1 v
b1 0"
1@
1k
1*
#760000
0*
#765000
0@
0k
1*
#770000
0*
#775000
b10 G
b10 z
b10 9"
b1 5"
b1 H
b1 y
b1 8"
1D
1E
b10 '"
b0 F
b0 x
b0 :"
b1 ""
b0 A"
1@
1k
1*
#780000
0*
#785000
0@
0k
1*
#790000
0*
#795000
b10 5"
b1 G
b1 z
b1 9"
b10 H
b10 y
b10 8"
1D
1E
b11 '"
b10 F
b10 x
b10 :"
b10 ""
b1 A"
1@
1k
1*
#800000
0*
#805000
0@
0k
1*
#810000
0*
#815000
b11 5"
b11 G
b11 z
b11 9"
b11 H
b11 y
b11 8"
1D
1E
b0 '"
b10 ,"
b1 F
b1 x
b1 :"
b11 ""
b10 A"
1@
1k
1*
#820000
0*
#825000
0@
0k
1*
#830000
0*
#835000
b0 G
b0 z
b0 9"
b0 H
b0 y
b0 8"
0D
1E
b11 ,"
b11 F
b11 x
b11 :"
b0 ""
b10 4
b10 v
b10 0"
b11 A"
1@
1k
1*
#840000
0*
#845000
0@
0k
1*
#850000
0*
#855000
0"
0#
0$
0'
b110 5
b110 7"
b1 8
b1 p
b1 6"
b1 I
b1 o
b1 }
b1110 (
b1110 7
b1110 $"
0E
b1 +"
b0 F
b0 x
b0 :"
b11 4
b11 v
b11 0"
b100 A"
1@
1k
1*
#860000
0*
#865000
0@
0k
1*
#870000
0*
#875000
b10 +"
b1 /"
b101 A"
1@
1k
1*
#880000
0*
#885000
0@
0k
1*
#890000
0*
#895000
b10 ,"
b1 *"
b0 +"
b10 /"
b110 A"
1@
1k
1*
#900000
0*
#905000
0@
0k
1*
#910000
0*
#915000
1"
1#
1$
1'
b111111 5
b111111 7"
b0 8
b0 p
b0 6"
b1 H
b1 y
b1 8"
1E
b0 I
b0 o
b0 }
b1111 (
b1111 7
b1111 $"
b11 ,"
b0 /"
b1 ."
b10 4
b10 v
b10 0"
b111 A"
1@
1k
1*
#920000
0*
#925000
0@
0k
1*
#930000
0*
#935000
1!
0"
0%
b1011011 5
b1011011 7"
b10 8
b10 p
b10 6"
b10 I
b10 o
b10 }
b1011 (
b1011 7
b1011 $"
b0 H
b0 y
b0 8"
0E
b1 +"
b10 F
b10 x
b10 :"
b11 4
b11 v
b11 0"
b1000 A"
1@
1k
1*
#940000
0*
#945000
0@
0k
1*
#950000
0*
#955000
b10 +"
b1 /"
b1001 A"
1@
1k
1*
#960000
0*
#965000
0@
0k
1*
#970000
0*
#975000
b10 ,"
b10 *"
b0 +"
b10 /"
b1010 A"
1@
1k
1*
#980000
0*
#985000
0@
0k
1*
#990000
0*
#995000
0!
1"
1%
b111111 5
b111111 7"
b0 8
b0 p
b0 6"
b10 H
b10 y
b10 8"
1E
b0 I
b0 o
b0 }
b1111 (
b1111 7
b1111 $"
b11 ,"
b0 /"
b10 ."
b10 4
b10 v
b10 0"
b1011 A"
1@
1k
1*
#1000000
0*
#1005000
0@
0k
1*
#1010000
0*
#1015000
1!
0"
0#
b1001111 5
b1001111 7"
b11 8
b11 p
b11 6"
b11 I
b11 o
b11 }
b1101 (
b1101 7
b1101 $"
b0 H
b0 y
b0 8"
0E
b1 +"
b1 F
b1 x
b1 :"
b11 4
b11 v
b11 0"
b1100 A"
1@
1k
1*
#1020000
0*
#1025000
0@
0k
1*
#1030000
0*
#1035000
b10 +"
b1 /"
b1101 A"
1@
1k
1*
#1040000
0*
#1045000
0@
0k
1*
#1050000
0*
#1055000
b10 ,"
b11 *"
b0 +"
b10 /"
b1110 A"
1@
1k
1*
#1060000
0*
#1065000
0@
0k
1*
#1070000
0*
#1075000
0!
1"
1#
b111111 5
b111111 7"
b0 8
b0 p
b0 6"
b11 H
b11 y
b11 8"
1E
b0 I
b0 o
b0 }
b1111 (
b1111 7
b1111 $"
b11 ,"
b0 /"
b11 ."
b10 4
b10 v
b10 0"
b1111 A"
1@
1k
1*
#1080000
0*
#1085000
0@
0k
1*
#1090000
0*
#1095000
1!
0#
0$
0'
b1100110 5
b1100110 7"
b100 8
b100 p
b100 6"
b100 I
b100 o
b100 }
b111 (
b111 7
b111 $"
b0 H
b0 y
b0 8"
0E
b1 +"
b11 F
b11 x
b11 :"
b11 4
b11 v
b11 0"
b10000 A"
1@
1k
1*
#1100000
0*
#1105000
0@
0k
1*
#1110000
0*
#1115000
b10 +"
b1 /"
b10001 A"
1@
1k
1*
#1120000
0*
#1125000
0@
0k
1*
#1130000
0*
#1135000
b0 *"
b100 ,"
b0 +"
b10 /"
b10010 A"
1@
1k
1*
#1140000
0*
#1145000
0@
0k
1*
#1150000
0*
#1155000
0!
1#
1$
1'
b111111 5
b111111 7"
b0 8
b0 p
b0 6"
b0 I
b0 o
b0 }
b1111 (
b1111 7
b1111 $"
b0 /"
b0 ."
b100 4
b100 v
b100 0"
b10011 A"
1@
1k
1*
#1160000
0*
#1165000
0@
0k
1*
#1170000
0*
#1175000
0K
b1110 )
b1110 -
b1 ?"
b0 >"
b11000010110110001101100001000000110110001100101011001000111001100100000011011110110011001100110001000000111011101101000011010010110110001100101001000000111011101100001011010010111010001101001011011100110011100100000011001100110111101110010001000000110100101101110011100000111010101110100 ="
b10100 A"
1@
1k
1*
#1180000
0*
#1185000
0@
0k
1*
#1190000
0*
#1195000
0P
1@
1k
1*
#1200000
0*
#1205000
0@
0k
1*
#1210000
0*
#1215000
1L
0Q
1@
1k
1*
#1220000
0*
#1225000
0@
0k
1*
#1230000
0*
#1235000
b1 M
1@
1k
1*
#1240000
0*
#1245000
0@
0k
1*
#1250000
0*
#1255000
b101 ,"
b1 4"
b1 3"
b0 M
b1 B
b1 s
1O
b1 C
1N
1@
1k
1*
#1260000
0*
#1265000
0@
0k
1*
#1270000
0*
#1275000
1E
b110 ,"
b101 4
b101 v
b101 0"
b0 B
b0 s
0O
1@
1k
1*
#1280000
0*
#1285000
0@
0k
1*
#1290000
0*
#1295000
b100 H
b100 y
b100 8"
1D
1E
b100 ,"
b1 ("
b0 F
b0 x
b0 :"
b110 4
b110 v
b110 0"
1@
1k
1*
#1300000
0*
#1305000
0@
0k
1*
#1310000
0*
#1315000
0"
0#
0$
0'
b110 5
b110 7"
b1 8
b1 p
b1 6"
b1 I
b1 o
b1 }
b0 H
b0 y
b0 8"
0D
0E
b1 3
b1 w
b1 #"
b100 4
b100 v
b100 0"
1@
1k
1*
#1320000
0*
#1325000
0@
0k
1*
#1330000
0*
#1335000
1K
b1111 )
b1111 -
1@
1k
1*
#1340000
0*
#1345000
0@
0k
1*
#1350000
0*
#1355000
1P
1@
1k
1*
#1360000
0*
#1365000
0@
0k
1*
#1370000
0*
#1375000
0L
1Q
1@
1k
1*
#1380000
0*
#1385000
0@
0k
1*
#1390000
0*
#1395000
b1 M
1@
1k
1*
#1400000
0*
#1405000
0@
0k
1*
#1410000
0*
#1415000
b0 M
b0 C
0N
1@
1k
1*
#1420000
0*
#1425000
0@
0k
1*
#1430000
0*
#1435000
1@
1k
1*
#1440000
0*
#1445000
0@
0k
1*
#1450000
0*
#1455000
1@
1k
1*
#1460000
0*
#1465000
0@
0k
1*
#1470000
0*
#1475000
1@
1k
1*
#1480000
0*
#1485000
0@
0k
1*
#1490000
0*
#1495000
0Y
b1011 )
b1011 -
b100 ?"
b10 >"
b1100110011010010111001001110011011101000010000001100011011011110111001001110010011001010110001101110100001000000110100101101110011100000111010101110100001000000110000101100100011101100110000101101110011000110110010101110011001000000111000001110010011011110110011101110010011001010111001101110011 ="
1@
1k
1*
#1500000
0*
#1505000
0@
0k
1*
#1510000
0*
#1515000
0^
1@
1k
1*
#1520000
0*
#1525000
0@
0k
1*
#1530000
0*
#1535000
1Z
0_
1@
1k
1*
#1540000
0*
#1545000
0@
0k
1*
#1550000
0*
#1555000
b1 [
1@
1k
1*
#1560000
0*
#1565000
0@
0k
1*
#1570000
0*
#1575000
b101 ,"
b10 %"
b100 4"
b100 3"
b0 [
b100 B
b100 s
1]
b100 C
1\
1@
1k
1*
#1580000
0*
#1585000
0@
0k
1*
#1590000
0*
#1595000
b1 H
b1 y
b1 8"
1E
b1 I
b1 o
b1 }
b110 ,"
b10 {
b101 4
b101 v
b101 0"
b0 B
b0 s
0]
1@
1k
1*
#1600000
0*
#1605000
0@
0k
1*
#1610000
0*
#1615000
b10 G
b10 z
b10 9"
1D
b101 H
b101 y
b101 8"
1E
b1 I
b1 o
b1 }
b100 ,"
b10 ("
b10 F
b10 x
b10 :"
b110 4
b110 v
b110 0"
1@
1k
1*
#1620000
0*
#1625000
0@
0k
1*
#1630000
0*
#1635000
1!
1#
1$
0%
1'
b1011011 5
b1011011 7"
b10 8
b10 p
b10 6"
b0 G
b0 z
b0 9"
b0 H
b0 y
b0 8"
0D
0E
b10 I
b10 o
b10 }
b0 F
b0 x
b0 :"
b10 3
b10 w
b10 #"
b100 4
b100 v
b100 0"
1@
1k
1*
#1640000
0*
#1645000
0@
0k
1*
#1650000
0*
#1655000
1Y
b1111 )
b1111 -
1@
1k
1*
#1660000
0*
#1665000
0@
0k
1*
#1670000
0*
#1675000
1^
1@
1k
1*
#1680000
0*
#1685000
0@
0k
1*
#1690000
0*
#1695000
0Z
1_
1@
1k
1*
#1700000
0*
#1705000
0@
0k
1*
#1710000
0*
#1715000
b1 [
1@
1k
1*
#1720000
0*
#1725000
0@
0k
1*
#1730000
0*
#1735000
b0 [
b0 C
0\
1@
1k
1*
#1740000
0*
#1745000
0@
0k
1*
#1750000
0*
#1755000
1@
1k
1*
#1760000
0*
#1765000
0@
0k
1*
#1770000
0*
#1775000
1@
1k
1*
#1780000
0*
#1785000
0@
0k
1*
#1790000
0*
#1795000
1@
1k
1*
#1800000
0*
#1805000
0@
0k
1*
#1810000
0*
#1815000
0R
b1101 )
b1101 -
b10 ?"
b1 >"
b111001101100101011000110110111101101110011001000010000001100011011011110111001001110010011001010110001101110100001000000110100101101110011100000111010101110100001000000110000101100100011101100110000101101110011000110110010101110011001000000111000001110010011011110110011101110010011001010111001101110011 ="
1@
1k
1*
#1820000
0*
#1825000
0@
0k
1*
#1830000
0*
#1835000
0W
1@
1k
1*
#1840000
0*
#1845000
0@
0k
1*
#1850000
0*
#1855000
1S
0X
1@
1k
1*
#1860000
0*
#1865000
0@
0k
1*
#1870000
0*
#1875000
b1 T
1@
1k
1*
#1880000
0*
#1885000
0@
0k
1*
#1890000
0*
#1895000
b101 ,"
b1 %"
b10 4"
b10 3"
b0 T
b10 B
b10 s
1V
b10 C
1U
1@
1k
1*
#1900000
0*
#1905000
0@
0k
1*
#1910000
0*
#1915000
b10 H
b10 y
b10 8"
1E
b10 I
b10 o
b10 }
b110 ,"
b1 {
b101 4
b101 v
b101 0"
b0 B
b0 s
0V
1@
1k
1*
#1920000
0*
#1925000
0@
0k
1*
#1930000
0*
#1935000
b1 G
b1 z
b1 9"
1D
b110 H
b110 y
b110 8"
1E
b10 I
b10 o
b10 }
b100 ,"
b11 ("
b1 F
b1 x
b1 :"
b110 4
b110 v
b110 0"
1@
1k
1*
#1940000
0*
#1945000
0@
0k
1*
#1950000
0*
#1955000
0#
1%
b1001111 5
b1001111 7"
b11 8
b11 p
b11 6"
b0 G
b0 z
b0 9"
b0 H
b0 y
b0 8"
0D
0E
b11 I
b11 o
b11 }
b0 F
b0 x
b0 :"
b11 3
b11 w
b11 #"
b100 4
b100 v
b100 0"
1@
1k
1*
#1960000
0*
#1965000
0@
0k
1*
#1970000
0*
#1975000
1R
b1111 )
b1111 -
1@
1k
1*
#1980000
0*
#1985000
0@
0k
1*
#1990000
0*
#1995000
1W
1@
1k
1*
#2000000
0*
#2005000
0@
0k
1*
#2010000
0*
#2015000
0S
1X
1@
1k
1*
#2020000
0*
#2025000
0@
0k
1*
#2030000
0*
#2035000
b1 T
1@
1k
1*
#2040000
0*
#2045000
0@
0k
1*
#2050000
0*
#2055000
b0 T
b0 C
0U
1@
1k
1*
#2060000
0*
#2065000
0@
0k
1*
#2070000
0*
#2075000
1@
1k
1*
#2080000
0*
#2085000
0@
0k
1*
#2090000
0*
#2095000
1@
1k
1*
#2100000
0*
#2105000
0@
0k
1*
#2110000
0*
#2115000
1@
1k
1*
#2120000
0*
#2125000
0@
0k
1*
#2130000
0*
