dr3/tp3/sim/build/tb_arithmetic_core.vcd
$date
	Mon May 18 08:55:04 2026
$end
$version
	Icarus Verilog
$end
$timescale
	1ps
$end
$scope module tb_arithmetic_core $end
$var wire 8 ! result [7:0] $end
$var wire 6 " flags [5:0] $end
$var wire 6 # expected_flags [5:0] $end
$var wire 8 $ expected [7:0] $end
$var wire 8 % b [7:0] $end
$var wire 8 & a [7:0] $end
$var reg 2 ' case_id [1:0] $end
$var reg 2 ( mode [1:0] $end
$var reg 2 ) op [1:0] $end
$var integer 32 * case_i [31:0] $end
$var integer 32 + errors [31:0] $end
$var integer 32 , mode_i [31:0] $end
$var integer 32 - op_i [31:0] $end
$scope module dut $end
$var wire 2 . mode [1:0] $end
$var wire 2 / op [1:0] $end
$var wire 8 0 unsigned_result [7:0] $end
$var wire 6 1 unsigned_flags [5:0] $end
$var wire 8 2 signed_result [7:0] $end
$var wire 6 3 signed_flags [5:0] $end
$var wire 8 4 float_result [7:0] $end
$var wire 6 5 float_flags [5:0] $end
$var wire 8 6 fixed_result [7:0] $end
$var wire 6 7 fixed_flags [5:0] $end
$var wire 8 8 b [7:0] $end
$var wire 8 9 a [7:0] $end
$var reg 6 : flags [5:0] $end
$var reg 8 ; result [7:0] $end
$scope module fixed_q3_4_alu_inst $end
$var wire 8 < a_s [7:0] $end
$var wire 8 = b_s [7:0] $end
$var wire 2 > op [1:0] $end
$var wire 8 ? b [7:0] $end
$var wire 8 @ a [7:0] $end
$var reg 16 A dividend [15:0] $end
$var reg 16 B divisor [15:0] $end
$var reg 6 C flags [5:0] $end
$var reg 4 D lost_bits [3:0] $end
$var reg 16 E quotient [15:0] $end
$var reg 16 F remainder [15:0] $end
$var reg 8 G result [7:0] $end
$var reg 16 H saturated [15:0] $end
$var reg 16 I shifted [15:0] $end
$var reg 16 J tmp [15:0] $end
$upscope $end
$scope module int_signed_alu_inst $end
$var wire 8 K a_s [7:0] $end
$var wire 8 L b_s [7:0] $end
$var wire 2 M op [1:0] $end
$var wire 8 N b [7:0] $end
$var wire 8 O a [7:0] $end
$var reg 9 P addsub_tmp [8:0] $end
$var reg 8 Q div_tmp [7:0] $end
$var reg 6 R flags [5:0] $end
$var reg 16 S mul_tmp [15:0] $end
$var reg 8 T rem_tmp [7:0] $end
$var reg 8 U result [7:0] $end
$upscope $end
$scope module int_unsigned_alu_inst $end
$var wire 2 V op [1:0] $end
$var wire 8 W b [7:0] $end
$var wire 8 X a [7:0] $end
$var reg 9 Y add_tmp [8:0] $end
$var reg 8 Z div_tmp [7:0] $end
$var reg 6 [ flags [5:0] $end
$var reg 16 \ mul_tmp [15:0] $end
$var reg 8 ] rem_tmp [7:0] $end
$var reg 8 ^ result [7:0] $end
$var reg 9 _ sub_tmp [8:0] $end
$upscope $end
$scope module minifloat_e4m3_addsub_inst $end
$var wire 1 ` op_sub $end
$var wire 8 a b [7:0] $end
$var wire 8 b a [7:0] $end
$var reg 22 c abs_sum [21:0] $end
$var reg 20 d aligned_a [19:0] $end
$var reg 20 e aligned_b [19:0] $end
$var reg 4 f exp_a [3:0] $end
$var reg 4 g exp_b [3:0] $end
$var reg 5 h exp_diff [4:0] $end
$var reg 4 i exp_work [3:0] $end
$var reg 6 j flags [5:0] $end
$var reg 4 k frac_a [3:0] $end
$var reg 4 l frac_b [3:0] $end
$var reg 20 m mag_a [19:0] $end
$var reg 20 n mag_b [19:0] $end
$var reg 20 o mag_work [19:0] $end
$var reg 8 p result [7:0] $end
$var reg 21 q shifted_pack [20:0] $end
$var reg 1 r sign_a $end
$var reg 1 s sign_b $end
$var reg 1 t sign_b_eff $end
$var reg 1 u sign_res $end
$var reg 22 v signed_a [21:0] $end
$var reg 22 w signed_b [21:0] $end
$var reg 1 x sticky $end
$var reg 22 y sum_signed [21:0] $end
$var integer 32 z norm_i [31:0] $end
$scope function shift_right_sticky $end
$var reg 5 { amount [4:0] $end
$var reg 20 | mask [19:0] $end
$var reg 20 } value [19:0] $end
$upscope $end
$upscope $end
$upscope $end
$scope module vectors $end
$var wire 2 ~ case_id [1:0] $end
$var wire 2 !" mode [1:0] $end
$var wire 2 "" op [1:0] $end
$var reg 8 #" a [7:0] $end
$var reg 8 $" b [7:0] $end
$var reg 8 %" expected [7:0] $end
$var reg 6 &" expected_flags [5:0] $end
$upscope $end
$upscope $end
$enddefinitions $end
#0
$dumpvars
b0 &"
b10001 %"
b101 $"
b1100 #"
b0 ""
b0 !"
b0 ~
bx }
bx |
bx {
b0 z
b0 y
0x
b0 w
b0 v
0u
0t
0s
0r
b0 q
b0 p
b0 o
b0 n
b0 m
b1101 l
b1100 k
b100010 j
b0 i
b0 h
b0 g
b1 f
b0 e
b0 d
b0 c
b1100 b
b101 a
0`
b0 _
b10001 ^
b0 ]
b0 \
b0 [
b0 Z
b10001 Y
b1100 X
b101 W
b0 V
b10001 U
b0 T
b0 S
b0 R
b0 Q
b10001 P
b1100 O
b101 N
b0 M
b101 L
b1100 K
b10001 J
b0 I
b10001 H
b10001 G
b0 F
b0 E
b0 D
b0 C
b0 B
b0 A
b1100 @
b101 ?
b0 >
b101 =
b1100 <
b10001 ;
b0 :
b1100 9
b101 8
b0 7
b10001 6
b100010 5
b0 4
b0 3
b10001 2
b0 1
b10001 0
b0 /
b0 .
b0 -
b0 ,
b0 +
b0 *
b0 )
b0 (
b0 '
b1100 &
b101 %
b10001 $
b0 #
b0 "
b10001 !
$end
#1000
b1 "
b1 :
b100 !
b100 ;
b100 P
b100 2
b100 U
b100 H
b100 J
b100 6
b100 G
b1 1
b1 [
b100000100 Y
b100 0
b100 ^
b1111111 4
b1111111 p
b1010 l
b1010 k
b1 g
b1111 f
1r
b100001 5
b100001 j
b1 #
b1 &"
b100 $
b100 %"
b1010 L
b1010 =
b1010 %
b1010 8
b1010 ?
b1010 N
b1010 W
b1010 a
b1010 $"
b11111010 K
b11111010 <
b11111010 &
b11111010 9
b11111010 @
b11111010 O
b11111010 X
b11111010 b
b11111010 #"
b1 '
b1 ~
b1 *
#2000
b0 "
b0 :
b0 !
b0 ;
b0 P
b0 2
b0 U
b0 H
b0 J
b0 6
b0 G
b0 Y
b0 1
b0 [
b0 0
b0 ^
b1000 l
b1000 k
b0 g
b0 f
0r
b0 5
b0 j
b0 4
b0 p
b0 #
b0 &"
b0 $
b0 %"
b0 L
b0 =
b0 %
b0 8
b0 ?
b0 N
b0 W
b0 a
b0 $"
b0 K
b0 <
b0 &
b0 9
b0 @
b0 O
b0 X
b0 b
b0 #"
b10 '
b10 ~
b10 *
#3000
b11111111 !
b11111111 ;
b11111111 2
b11111111 U
b111111111 P
b11111111 6
b11111111 G
b1111111111111111 H
b1111111111111111 J
b11111111 0
b11111111 ^
b11111111 Y
b100001 5
b100001 j
b1111111 4
b1111111 p
b1111 l
b1111 g
1r
b11111111 $
b11111111 %"
b1111111 L
b1111111 =
b1111111 %
b1111111 8
b1111111 ?
b1111111 N
b1111111 W
b1111111 a
b1111111 $"
b10000000 K
b10000000 <
b10000000 &
b10000000 9
b10000000 @
b10000000 O
b10000000 X
b10000000 b
b10000000 #"
b11 '
b11 ~
b11 *
#4000
b1101 l
b1100 k
b0 g
b1 f
1t
0r
b100010 5
b100010 j
b0 4
b0 p
b111 H
b111 J
b111 6
b111 G
b111 P
b111 2
b111 U
b111 _
b0 Y
b111 0
b111 ^
b111 $
b111 %"
b101 L
b101 =
b101 %
b101 8
b101 ?
b101 N
b101 W
b101 a
b101 $"
b1100 K
b1100 <
b1100 &
b1100 9
b1100 @
b1100 O
b1100 X
b1100 b
b1100 #"
b111 !
b111 ;
b0 '
b0 ~
1`
b1 )
b1 /
b1 >
b1 M
b1 V
b1 ""
b1 -
b0 *
#5000
b10 "
b10 :
b11111001 !
b11111001 ;
b111111001 P
b11111001 2
b11111001 U
b1111111111111001 H
b1111111111111001 J
b11111001 6
b11111001 G
b10 1
b10 [
b111111001 _
b11111001 0
b11111001 ^
b1100 l
b1101 k
b1 g
b0 f
b100010 5
b100010 j
b10 #
b10 &"
b11111001 $
b11111001 %"
b1100 L
b1100 =
b1100 %
b1100 8
b1100 ?
b1100 N
b1100 W
b1100 a
b1100 $"
b101 K
b101 <
b101 &
b101 9
b101 @
b101 O
b101 X
b101 b
b101 #"
b1 '
b1 ~
b1 *
#6000
b10 "
b10 :
b11111111 !
b11111111 ;
b111111111 P
b11111111 2
b11111111 U
b1111111111111111 H
b1111111111111111 J
b11111111 6
b11111111 G
b111111111 _
b10 1
b10 [
b11111111 0
b11111111 ^
b1001 l
b1000 k
b0 g
b100010 5
b100010 j
b10 #
b10 &"
b11111111 $
b11111111 %"
b1 L
b1 =
b1 %
b1 8
b1 ?
b1 N
b1 W
b1 a
b1 $"
b0 K
b0 <
b0 &
b0 9
b0 @
b0 O
b0 X
b0 b
b0 #"
b10 '
b10 ~
b10 *
#7000
b0 "
b0 :
b11111110 !
b11111110 ;
b111111110 P
b11111110 2
b11111110 U
b1111111111111110 H
b1111111111111110 J
b11111110 6
b11111110 G
b11111110 _
b0 1
b0 [
b11111110 0
b11111110 ^
b1111111 4
b1111111 p
b1111 k
b1111 f
1r
b100001 5
b100001 j
b11111111 K
b11111111 <
b11111111 &
b11111111 9
b11111111 @
b11111111 O
b11111111 X
b11111111 b
b11111111 #"
b0 #
b0 &"
b11111110 $
b11111110 %"
b1 L
b1 =
b1 %
b1 8
b1 ?
b1 N
b1 W
b1 a
b1 $"
b11 '
b11 ~
b11 *
#8000
b1101 l
b1100 k
b1 f
0t
0r
b100010 5
b100010 j
b0 4
b0 p
b100000 7
b100000 C
b11 I
b1100 D
b11 H
b111100 J
b11 6
b11 G
b111100 S
b0 P
b111100 2
b111100 U
b111100 \
b0 _
b111100 0
b111100 ^
b111100 $
b111100 %"
b101 L
b101 =
b101 %
b101 8
b101 ?
b101 N
b101 W
b101 a
b101 $"
b1100 K
b1100 <
b1100 &
b1100 9
b1100 @
b1100 O
b1100 X
b1100 b
b1100 #"
b111100 !
b111100 ;
b0 '
b0 ~
0`
b10 )
b10 /
b10 >
b10 M
b10 V
b10 ""
b10 -
b0 *
#9000
b1 "
b1 :
b10010000 !
b10010000 ;
b1 3
b1 R
b110010000 S
b10010000 2
b10010000 U
b0 D
b11001 H
b11001 I
b110010000 J
b0 7
b0 C
b11001 6
b11001 G
b1 1
b1 [
b110010000 \
b10010000 0
b10010000 ^
b11100 4
b11100 p
b1111 z
b110000000000 o
b1100000000000 c
b1100000000000 y
b110000000000 w
b110000000000 v
b110000000000 e
b110000000000 q
b110000000000 }
b0 {
b110000000000 d
b11 i
b110000000000 n
b110000000000 m
b1100 l
b10 g
b10 f
b0 5
b0 j
b1 #
b1 &"
b10010000 $
b10010000 %"
b10100 L
b10100 =
b10100 %
b10100 8
b10100 ?
b10100 N
b10100 W
b10100 a
b10100 $"
b10100 K
b10100 <
b10100 &
b10100 9
b10100 @
b10100 O
b10100 X
b10100 b
b10100 #"
b1 '
b1 ~
b1 *
#10000
b1 "
b1 :
b0 !
b0 ;
b100000000 S
b1 3
b1 R
b0 2
b0 U
b10000 H
b10000 I
b100000000 J
b10000 6
b10000 G
b100000000 \
b1 1
b1 [
b0 0
b0 ^
b100000000000 }
b1111 z
b100000000000 o
b1000000000000 c
b1000000000000 y
b100000000000 w
b100000000000 v
b100000000000 q
b100000000000 e
b100000000000 d
b100000000000 n
b100000000000 m
b1000 l
b1000 k
b11 i
b11000 4
b11000 p
b1 #
b1 &"
b0 $
b0 %"
b10000 L
b10000 =
b10000 %
b10000 8
b10000 ?
b10000 N
b10000 W
b10000 a
b10000 $"
b10000 K
b10000 <
b10000 &
b10000 9
b10000 @
b10000 O
b10000 X
b10000 b
b10000 #"
b10 '
b10 ~
b10 *
#11000
b1100 !
b1100 ;
b0 "
b0 :
b1100 2
b1100 U
b1100 S
b0 3
b0 R
b100000 7
b100000 C
b1100 D
b0 H
b0 I
b1100 J
b0 6
b0 G
b1100 0
b1100 ^
b1100 \
b0 1
b0 [
b100010 5
b100010 j
b0 z
b0 o
b0 c
b0 y
b0 w
b0 v
b0 q
b0 e
b0 d
b0 n
b0 m
b1100 l
b1011 k
b0 i
b0 g
b0 f
b0 4
b0 p
b1100 $
b1100 %"
b0 #
b0 &"
b100 L
b100 =
b100 %
b100 8
b100 ?
b100 N
b100 W
b100 a
b100 $"
b11 K
b11 <
b11 &
b11 9
b11 @
b11 O
b11 X
b11 b
b11 #"
b11 '
b11 ~
b11 *
#12000
b1101 l
b1100 k
b10 f
b100010 5
b100010 j
b1000000 6
b1000000 G
b1000000 H
b1000000 E
b101 B
b101000000 A
b0 D
b0 J
b0 7
b0 C
b100 Q
b0 S
b100 2
b100 U
b100 Z
b0 \
b100 0
b100 ^
b100 $
b100 %"
b101 L
b101 =
b101 %
b101 8
b101 ?
b101 N
b101 W
b101 a
b101 $"
b10100 K
b10100 <
b10100 &
b10100 9
b10100 @
b10100 O
b10100 X
b10100 b
b10100 #"
b100 !
b100 ;
b0 '
b0 ~
b11 )
b11 /
b11 >
b11 M
b11 V
b11 ""
b11 -
b0 *
#13000
b100 "
b100 :
b0 !
b0 ;
b100 3
b100 R
b0 Q
b0 2
b0 U
b100 7
b100 C
b0 H
b0 E
b0 B
b0 A
b0 6
b0 G
b100 1
b100 [
b0 Z
b0 0
b0 ^
b1000 l
b1111 k
b0 f
b100010 5
b100010 j
b100 #
b100 &"
b0 $
b0 %"
b0 L
b0 =
b0 %
b0 8
b0 ?
b0 N
b0 W
b0 a
b0 $"
b111 K
b111 <
b111 &
b111 9
b111 @
b111 O
b111 X
b111 b
b111 #"
b1 '
b1 ~
b1 *
#14000
b11 !
b11 ;
b100000 "
b100000 :
b11 2
b11 U
b1 T
b11 Q
b100000 3
b100000 R
b111000 6
b111000 G
b111000 H
b111000 E
b10 B
b1110000 A
b0 7
b0 C
b11 0
b11 ^
b1 ]
b11 Z
b100000 1
b100000 [
b1010 l
b100010 5
b100010 j
b11 $
b11 %"
b10 L
b10 =
b10 %
b10 8
b10 ?
b10 N
b10 W
b10 a
b10 $"
b100000 #
b100000 &"
b111 K
b111 <
b111 &
b111 9
b111 @
b111 O
b111 X
b111 b
b111 #"
b10 '
b10 ~
b10 *
#15000
b100000 "
b100000 :
b1111 !
b1111 ;
b11111111 T
b0 Q
b100000 3
b100000 R
b0 2
b0 U
b1111111111111111 H
b1111111111111111 E
b10000 B
b1111111111110000 A
b11111111 6
b11111111 G
b1111 ]
b1111 Z
b100000 1
b100000 [
b1111 0
b1111 ^
b1111111 4
b1111111 p
b1000 l
b10 g
b1111 f
1r
b100001 5
b100001 j
b100000 #
b100000 &"
b1111 $
b1111 %"
b10000 L
b10000 =
b10000 %
b10000 8
b10000 ?
b10000 N
b10000 W
b10000 a
b10000 $"
b11111111 K
b11111111 <
b11111111 &
b11111111 9
b11111111 @
b11111111 O
b11111111 X
b11111111 b
b11111111 #"
b11 '
b11 ~
b11 *
#16000
b1101 l
b1010 k
b0 g
b1 f
0r
b100010 5
b100010 j
b0 4
b0 p
b1111 J
b1111 H
b0 E
b0 B
b0 A
b1111 6
b1111 G
b1111 2
b1111 U
b1111 P
b0 T
b0 3
b0 R
b1111 Y
b0 ]
b0 Z
b0 1
b0 [
b1111 0
b1111 ^
b0 "
b0 :
b1111 !
b1111 ;
b0 #
b0 &"
b1111 $
b1111 %"
b101 L
b101 =
b101 %
b101 8
b101 ?
b101 N
b101 W
b101 a
b101 $"
b1010 K
b1010 <
b1010 &
b1010 9
b1010 @
b1010 O
b1010 X
b1010 b
b1010 #"
b0 '
b0 ~
b0 )
b0 /
b0 >
b0 M
b0 V
b0 ""
b1 (
b1 .
b1 !"
b1 ,
b0 -
b0 *
#17000
b1 "
b1 :
b10001100 !
b10001100 ;
b1 3
b1 R
b10001100 P
b10001100 2
b10001100 U
b1001 7
b1001 C
b1111111 H
b10001100 J
b1111111 6
b1111111 G
b10001100 Y
b10001100 0
b10001100 ^
b1100100 4
b1100100 p
b1111 z
b110000010000 o
b110000010000 c
b110000010000 y
b10000 w
b110000000000 v
b10000 e
b10000 q
b1111111 |
b111 {
b110000000000 d
b111 h
b1100 i
b100000000000 n
b110000000000 m
b1000 l
b1100 k
b101 g
b1100 f
b100000 5
b100000 j
b1 #
b1 &"
b10001100 $
b10001100 %"
b101000 L
b101000 =
b101000 %
b101000 8
b101000 ?
b101000 N
b101000 W
b101000 a
b101000 $"
b1100100 K
b1100100 <
b1100100 &
b1100100 9
b1100100 @
b1100100 O
b1100100 X
b1100100 b
b1100100 #"
b1 '
b1 ~
b1 *
#18000
b10 "
b10 :
b1111110 !
b1111110 ;
b101111110 P
b10 3
b10 R
b1111110 2
b1111110 U
b1111111110000000 H
b1111111101111110 J
b1010 7
b1010 C
b10000000 6
b10000000 G
b1 1
b1 [
b101111110 Y
b1111110 0
b1111110 ^
1u
b111 |
b11 {
b1111 z
b111100000000 o
b111100000000 c
b1111111111000100000000 y
b1111111111111100000000 w
b1111111111001000000000 v
b100000000 q
b100000000 e
b111000000000 d
b100000000000 n
b111000000000 m
b11 h
b1110 k
b1001 i
b110 g
b1001 f
1t
1s
1r
b0 5
b0 j
b11001111 4
b11001111 p
b10 #
b10 &"
b1111110 $
b1111110 %"
b10110000 L
b10110000 =
b10110000 %
b10110000 8
b10110000 ?
b10110000 N
b10110000 W
b10110000 a
b10110000 $"
b11001110 K
b11001110 <
b11001110 &
b11001110 9
b11001110 @
b11001110 O
b11001110 X
b11001110 b
b11001110 #"
b10 '
b10 ~
b10 *
#19000
b0 "
b0 :
b11111110 !
b11111110 ;
b111111110 P
b0 3
b0 R
b11111110 2
b11111110 U
b1111111111111110 H
b1111111111111110 J
b0 7
b0 C
b11111110 6
b11111110 G
b11111110 Y
b0 1
b0 [
b11111110 0
b11111110 ^
b100001 5
b100001 j
b0 z
b0 o
b0 c
b0 y
b0 w
b0 v
b0 q
b0 e
b0 d
b0 n
b0 m
b0 h
b1011 l
b1011 k
b0 i
b0 g
b1111 f
0u
0t
0s
b1111111 4
b1111111 p
b0 #
b0 &"
b11111110 $
b11111110 %"
b11 L
b11 =
b11 %
b11 8
b11 ?
b11 N
b11 W
b11 a
b11 $"
b11111011 K
b11111011 <
b11111011 &
b11111011 9
b11111011 @
b11111011 O
b11111011 X
b11111011 b
b11111011 #"
b11 '
b11 ~
b11 *
#20000
b1101 l
b1010 k
b1 f
1t
0r
b100010 5
b100010 j
b0 4
b0 p
b101 H
b101 J
b101 6
b101 G
b101 P
b101 2
b101 U
b101 _
b0 Y
b101 0
b101 ^
b101 $
b101 %"
b101 L
b101 =
b101 %
b101 8
b101 ?
b101 N
b101 W
b101 a
b101 $"
b1010 K
b1010 <
b1010 &
b1010 9
b1010 @
b1010 O
b1010 X
b1010 b
b1010 #"
b101 !
b101 ;
b0 '
b0 ~
1`
b1 )
b1 /
b1 >
b1 M
b1 V
b1 ""
b1 -
b0 *
#21000
b10 "
b10 :
b1110100 !
b1110100 ;
b10 3
b10 R
b101110100 P
b1110100 2
b1110100 U
b1010 7
b1010 C
b1111111110000000 H
b1111111101110100 J
b10000000 6
b10000000 G
b1110100 _
b1110100 0
b1110100 ^
b10101011 4
b10101011 p
b1111 z
b101100000000 o
b101100000000 c
1u
b1111111111010100000000 y
b1111111111100000000000 w
b1111111111110100000000 v
b1100000000 d
b1100000000 q
b11 |
b110000000000 }
b10 {
b100000000000 e
b10 h
b101 i
b100000000000 n
b110000000000 m
b1000 l
b1100 k
b101 g
b11 f
1r
b0 5
b0 j
b10 #
b10 &"
b1110100 $
b1110100 %"
b101000 L
b101000 =
b101000 %
b101000 8
b101000 ?
b101000 N
b101000 W
b101000 a
b101000 $"
b10011100 K
b10011100 <
b10011100 &
b10011100 9
b10011100 @
b10011100 O
b10011100 X
b10011100 b
b10011100 #"
b1 '
b1 ~
b1 *
#22000
b1 "
b1 :
b10001100 !
b10001100 ;
b10001100 P
b1 3
b1 R
b10001100 2
b10001100 U
b1111111 H
b10001100 J
b1001 7
b1001 C
b1111111 6
b1111111 G
b10 1
b10 [
b110001100 _
b10001100 0
b10001100 ^
b1 |
b100000000000 }
b1 {
b1111 z
b100000000000 o
b1000000000000 c
b1000000000000 y
b10000000000 w
b110000000000 v
b10000000000 q
b10000000000 e
b110000000000 d
b100000000000 n
b110000000000 m
b1 h
b1101 i
b1011 g
b1100 f
0u
0t
1s
0r
b1101000 4
b1101000 p
b1 #
b1 &"
b10001100 $
b10001100 %"
b11011000 L
b11011000 =
b11011000 %
b11011000 8
b11011000 ?
b11011000 N
b11011000 W
b11011000 a
b11011000 $"
b1100100 K
b1100100 <
b1100100 &
b1100100 9
b1100100 @
b1100100 O
b1100100 X
b1100100 b
b1100100 #"
b10 '
b10 ~
b10 *
#23000
b0 "
b0 :
b11111110 !
b11111110 ;
b111111110 P
b0 3
b0 R
b11111110 2
b11111110 U
b1111111111111110 H
b1111111111111110 J
b0 7
b0 C
b11111110 6
b11111110 G
b111111110 _
b10 1
b10 [
b11111110 0
b11111110 ^
b100010 5
b100010 j
b0 z
b0 o
b0 c
b0 y
b0 w
b0 v
b0 q
b0 e
b0 d
b0 n
b0 m
b0 h
b1101 l
b1011 k
b0 i
b0 g
b0 f
1t
0s
b0 4
b0 p
b0 #
b0 &"
b11111110 $
b11111110 %"
b101 L
b101 =
b101 %
b101 8
b101 ?
b101 N
b101 W
b101 a
b101 $"
b11 K
b11 <
b11 &
b11 9
b11 @
b11 O
b11 X
b11 b
b11 #"
b11 '
b11 ~
b11 *
#24000
b1111111 4
b1111111 p
b1110 l
b1100 k
b1111 f
0t
1r
b100001 5
b100001 j
b100000 7
b100000 C
b1111111111111110 I
b1000 D
b1111111111111110 H
b1111111111101000 J
b11111110 6
b11111110 G
b1111111111101000 S
b0 P
b11101000 2
b11101000 U
b10111101000 \
b0 _
b1 1
b1 [
b11101000 0
b11101000 ^
b11101000 $
b11101000 %"
b110 L
b110 =
b110 %
b110 8
b110 ?
b110 N
b110 W
b110 a
b110 $"
b11111100 K
b11111100 <
b11111100 &
b11111100 9
b11111100 @
b11111100 O
b11111100 X
b11111100 b
b11111100 #"
b11101000 !
b11101000 ;
b0 '
b0 ~
0`
b10 )
b10 /
b10 >
b10 M
b10 V
b10 ""
b10 -
b0 *
#25000
b1 "
b1 :
b11111010 !
b11111010 ;
b1 3
b1 R
b11111010 S
b11111010 2
b11111010 U
b1010 D
b1111 H
b1111 I
b11111010 J
b100000 7
b100000 C
b1111 6
b1111 G
b11111010 \
b0 1
b0 [
b11111010 0
b11111010 ^
b1101 l
b1010 k
b110 f
0r
b100010 5
b100010 j
b0 4
b0 p
b1 #
b1 &"
b11111010 $
b11111010 %"
b101 L
b101 =
b101 %
b101 8
b101 ?
b101 N
b101 W
b101 a
b101 $"
b110010 K
b110010 <
b110010 &
b110010 9
b110010 @
b110010 O
b110010 X
b110010 b
b110010 #"
b1 '
b1 ~
b1 *
#26000
b10 "
b10 :
b1001100 !
b1001100 ;
b1111111101001100 S
b10 3
b10 R
b1001100 2
b1001100 U
b1100 D
b1111111111110100 H
b1111111111110100 I
b1111111101001100 J
b100000 7
b100000 C
b11110100 6
b11110100 G
b1 1
b1 [
b1001001100 \
b1001100 0
b1001100 ^
b1011 l
b1100 k
b1000 f
1r
b100010 5
b100010 j
b10 #
b10 &"
b1001100 $
b1001100 %"
b11 L
b11 =
b11 %
b11 8
b11 ?
b11 N
b11 W
b11 a
b11 $"
b11000100 K
b11000100 <
b11000100 &
b11000100 9
b11000100 @
b11000100 O
b11000100 X
b11000100 b
b11000100 #"
b10 '
b10 ~
b10 *
#27000
b0 "
b0 :
b1000000 !
b1000000 ;
b1000000 S
b0 3
b0 R
b1000000 2
b1000000 U
b0 D
b100 H
b100 I
b1000000 J
b0 7
b0 C
b100 6
b100 G
b1111000001000000 \
b1 1
b1 [
b1000000 0
b1000000 ^
b11111000 4
b11111000 p
b1000 l
b1000 k
b1111 g
b1111 f
1t
1s
b1 5
b1 j
b0 #
b0 &"
b1000000 $
b1000000 %"
b11111000 L
b11111000 =
b11111000 %
b11111000 8
b11111000 ?
b11111000 N
b11111000 W
b11111000 a
b11111000 $"
b11111000 K
b11111000 <
b11111000 &
b11111000 9
b11111000 @
b11111000 O
b11111000 X
b11111000 b
b11111000 #"
b11 '
b11 ~
b11 *
#28000
b1101 l
b1100 k
b0 g
b1101 f
0t
0s
b100010 5
b100010 j
b0 4
b0 p
b1111111111000000 E
b101 B
b1111111011000000 A
b1111111111000000 H
b0 I
b0 J
b11000000 6
b11000000 G
b11111100 Q
b0 S
b11111100 2
b11111100 U
b1 ]
b101111 Z
b0 \
b100000 1
b100000 [
b101111 0
b101111 ^
b11111100 $
b11111100 %"
b101 L
b101 =
b101 %
b101 8
b101 ?
b101 N
b101 W
b101 a
b101 $"
b11101100 K
b11101100 <
b11101100 &
b11101100 9
b11101100 @
b11101100 O
b11101100 X
b11101100 b
b11101100 #"
b11111100 !
b11111100 ;
b0 '
b0 ~
b11 )
b11 /
b11 >
b11 M
b11 V
b11 ""
b11 -
b0 *
#29000
b100 "
b100 :
b0 !
b0 ;
b100 3
b100 R
b0 Q
b0 2
b0 U
b100 7
b100 C
b0 H
b0 E
b0 B
b0 A
b0 6
b0 G
b0 ]
b0 Z
b100 1
b100 [
b0 0
b0 ^
b1000 l
b1111 k
b0 f
0r
b100010 5
b100010 j
b100 #
b100 &"
b0 $
b0 %"
b0 L
b0 =
b0 %
b0 8
b0 ?
b0 N
b0 W
b0 a
b0 $"
b111 K
b111 <
b111 &
b111 9
b111 @
b111 O
b111 X
b111 b
b111 #"
b1 '
b1 ~
b1 *
#30000
b11 !
b11 ;
b100000 "
b100000 :
b11 2
b11 U
b1 T
b11 Q
b100000 3
b100000 R
b111000 6
b111000 G
b111000 H
b111000 E
b10 B
b1110000 A
b0 7
b0 C
b11 0
b11 ^
b1 ]
b11 Z
b100000 1
b100000 [
b1010 l
b100010 5
b100010 j
b11 $
b11 %"
b10 L
b10 =
b10 %
b10 8
b10 ?
b10 N
b10 W
b10 a
b10 $"
b100000 #
b100000 &"
b111 K
b111 <
b111 &
b111 9
b111 @
b111 O
b111 X
b111 b
b111 #"
b10 '
b10 ~
b10 *
#31000
b100000 "
b100000 :
b11111101 !
b11111101 ;
b11111111 T
b11111101 Q
b100000 3
b100000 R
b11111101 2
b11111101 U
b1111111111001000 H
b1111111111001000 E
b10 B
b1111111110010000 A
b11001000 6
b11001000 G
b1 ]
b1111100 Z
b100000 1
b100000 [
b1111100 0
b1111100 ^
b1111111 4
b1111111 p
b1001 k
b1111 f
1r
b100001 5
b100001 j
b100000 #
b100000 &"
b11111101 $
b11111101 %"
b10 L
b10 =
b10 %
b10 8
b10 ?
b10 N
b10 W
b10 a
b10 $"
b11111001 K
b11111001 <
b11111001 &
b11111001 9
b11111001 @
b11111001 O
b11111001 X
b11111001 b
b11111001 #"
b11 '
b11 ~
b11 *
#32000
b1111 z
b101000000000 o
b101000000000 c
b101000000000 y
b1000000000 w
b100000000000 v
b1000000000 e
b1000000000 q
b11 |
b10 {
b100000000000 d
b10 h
b11 i
b100000000000 n
b100000000000 m
b1000 l
b1000 k
b1 g
b11 f
0r
b0 5
b0 j
b11010 4
b11010 p
b100000 J
b100000 H
b0 E
b0 B
b0 A
b100000 6
b100000 G
b100000 P
b0 T
b0 Q
b0 3
b0 R
b100000 2
b100000 U
b100000 Y
b0 ]
b0 Z
b0 1
b0 [
b100000 0
b100000 ^
b0 "
b0 :
b100000 !
b100000 ;
b0 #
b0 &"
b100000 $
b100000 %"
b1000 L
b1000 =
b1000 %
b1000 8
b1000 ?
b1000 N
b1000 W
b1000 a
b1000 $"
b11000 K
b11000 <
b11000 &
b11000 9
b11000 @
b11000 O
b11000 X
b11000 b
b11000 #"
b0 '
b0 ~
b0 )
b0 /
b0 >
b0 M
b0 V
b0 ""
b10 (
b10 .
b10 !"
b10 ,
b0 -
b0 *
#33000
b1001 "
b1001 :
b1111111 !
b1111111 ;
b1 3
b1 R
b10001000 P
b10001000 2
b10001000 U
b1001 7
b1001 C
b1111111 H
b10001000 J
b1111111 6
b1111111 G
b10001000 Y
b10001000 0
b10001000 ^
b1 5
b1 j
b0 z
b0 o
b0 c
b0 y
b0 w
b0 v
b0 q
b0 e
b0 d
b0 n
b0 m
b0 h
b0 i
b10 g
b1111 f
b1111000 4
b1111000 p
b1001 #
b1001 &"
b1111111 $
b1111111 %"
b10000 L
b10000 =
b10000 %
b10000 8
b10000 ?
b10000 N
b10000 W
b10000 a
b10000 $"
b1111000 K
b1111000 <
b1111000 &
b1111000 9
b1111000 @
b1111000 O
b1111000 X
b1111000 b
b1111000 #"
b1 '
b1 ~
b1 *
#34000
b1010 "
b1010 :
b10000000 !
b10000000 ;
b101111000 P
b10 3
b10 R
b1111000 2
b1111000 U
b1111111110000000 H
b1111111101111000 J
b1010 7
b1010 C
b10000000 6
b10000000 G
b1 1
b1 [
b101111000 Y
b1111000 0
b1111000 ^
b1111 z
b100000000000 o
b100000000000 c
1u
b1111111111100000000000 y
b1111111111100000000000 w
1x
b100000000000000000000 q
b1111111111111 |
b1101 {
b100000000000 e
b1101 h
b1110 i
b100000000000 n
b100000000000 m
b1110 g
b1 f
1t
1s
1r
b100000 5
b100000 j
b11110000 4
b11110000 p
b1010 #
b1010 &"
b10000000 $
b10000000 %"
b11110000 L
b11110000 =
b11110000 %
b11110000 8
b11110000 ?
b11110000 N
b11110000 W
b11110000 a
b11110000 $"
b10001000 K
b10001000 <
b10001000 &
b10001000 9
b10001000 @
b10001000 O
b10001000 X
b10001000 b
b10001000 #"
b10 '
b10 ~
b10 *
