dr3/tp3/evidencias/simulacao/tb_tp3_demo_top.vcd
$date
	Mon May 18 08:55:04 2026
$end
$version
	Icarus Verilog
$end
$timescale
	1ps
$end
$scope module tb_tp3_demo_top $end
$var wire 1 ! uart_tx $end
$var wire 4 " led_n [3:0] $end
$var reg 4 # btn_n [3:0] $end
$var reg 8 $ rx_byte [7:0] $end
$var reg 1 % sys_clk $end
$var reg 1 & sys_rst_n $end
$var integer 32 ' errors [31:0] $end
$var integer 32 ( i [31:0] $end
$scope module dut $end
$var wire 4 ) btn_n [3:0] $end
$var wire 1 * pass $end
$var wire 1 % sys_clk $end
$var wire 1 & sys_rst_n $end
$var wire 1 ! uart_tx $end
$var wire 1 + uart_done $end
$var wire 1 , uart_busy $end
$var wire 8 - result [7:0] $end
$var wire 4 . led_n [3:0] $end
$var wire 6 / flags [5:0] $end
$var wire 6 0 expected_flags [5:0] $end
$var wire 8 1 expected [7:0] $end
$var wire 4 2 button_pulse [3:0] $end
$var wire 4 3 button_pressed [3:0] $end
$var wire 8 4 b [7:0] $end
$var wire 8 5 a [7:0] $end
$var reg 2 6 case_id [1:0] $end
$var reg 2 7 mode [1:0] $end
$var reg 7 8 msg_index [6:0] $end
$var reg 2 9 op [1:0] $end
$var reg 1 : pending_send $end
$var reg 1 ; sending $end
$var reg 8 < uart_data [7:0] $end
$var reg 1 = uart_start $end
$scope function flag_char $end
$var reg 4 > index [3:0] $end
$upscope $end
$scope function hex_char $end
$var reg 4 ? value [3:0] $end
$upscope $end
$scope function message_byte $end
$var reg 7 @ index [6:0] $end
$upscope $end
$scope function mode_char $end
$var reg 3 A index [2:0] $end
$upscope $end
$scope function op_char $end
$var reg 2 B index [1:0] $end
$upscope $end
$scope function pass_char $end
$var reg 2 C index [1:0] $end
$upscope $end
$scope begin button_inputs[0] $end
$scope module button_conditioner_inst $end
$var wire 1 % clk $end
$var wire 1 D raw_n $end
$var wire 1 & rst_n $end
$var reg 3 E counter [2:0] $end
$var reg 1 F debounced_pressed $end
$var reg 1 G debounced_pressed_d $end
$var reg 1 H pressed $end
$var reg 1 I pressed_pulse $end
$var reg 1 J stable_n $end
$var reg 1 K sync_0 $end
$var reg 1 L sync_1 $end
$upscope $end
$upscope $end
$scope begin button_inputs[1] $end
$scope module button_conditioner_inst $end
$var wire 1 % clk $end
$var wire 1 M raw_n $end
$var wire 1 & rst_n $end
$var reg 3 N counter [2:0] $end
$var reg 1 O debounced_pressed $end
$var reg 1 P debounced_pressed_d $end
$var reg 1 Q pressed $end
$var reg 1 R pressed_pulse $end
$var reg 1 S stable_n $end
$var reg 1 T sync_0 $end
$var reg 1 U sync_1 $end
$upscope $end
$upscope $end
$scope begin button_inputs[2] $end
$scope module button_conditioner_inst $end
$var wire 1 % clk $end
$var wire 1 V raw_n $end
$var wire 1 & rst_n $end
$var reg 3 W counter [2:0] $end
$var reg 1 X debounced_pressed $end
$var reg 1 Y debounced_pressed_d $end
$var reg 1 Z pressed $end
$var reg 1 [ pressed_pulse $end
$var reg 1 \ stable_n $end
$var reg 1 ] sync_0 $end
$var reg 1 ^ sync_1 $end
$upscope $end
$upscope $end
$scope begin button_inputs[3] $end
$scope module button_conditioner_inst $end
$var wire 1 % clk $end
$var wire 1 _ raw_n $end
$var wire 1 & rst_n $end
$var reg 3 ` counter [2:0] $end
$var reg 1 a debounced_pressed $end
$var reg 1 b debounced_pressed_d $end
$var reg 1 c pressed $end
$var reg 1 d pressed_pulse $end
$var reg 1 e stable_n $end
$var reg 1 f sync_0 $end
$var reg 1 g sync_1 $end
$upscope $end
$upscope $end
$scope module arithmetic_core_inst $end
$var wire 2 h mode [1:0] $end
$var wire 2 i op [1:0] $end
$var wire 8 j unsigned_result [7:0] $end
$var wire 6 k unsigned_flags [5:0] $end
$var wire 8 l signed_result [7:0] $end
$var wire 6 m signed_flags [5:0] $end
$var wire 8 n float_result [7:0] $end
$var wire 6 o float_flags [5:0] $end
$var wire 8 p fixed_result [7:0] $end
$var wire 6 q fixed_flags [5:0] $end
$var wire 8 r b [7:0] $end
$var wire 8 s a [7:0] $end
$var reg 6 t flags [5:0] $end
$var reg 8 u result [7:0] $end
$scope module fixed_q3_4_alu_inst $end
$var wire 8 v a_s [7:0] $end
$var wire 8 w b_s [7:0] $end
$var wire 2 x op [1:0] $end
$var wire 8 y b [7:0] $end
$var wire 8 z a [7:0] $end
$var reg 16 { dividend [15:0] $end
$var reg 16 | divisor [15:0] $end
$var reg 6 } flags [5:0] $end
$var reg 4 ~ lost_bits [3:0] $end
$var reg 16 !" quotient [15:0] $end
$var reg 16 "" remainder [15:0] $end
$var reg 8 #" result [7:0] $end
$var reg 16 $" saturated [15:0] $end
$var reg 16 %" shifted [15:0] $end
$var reg 16 &" tmp [15:0] $end
$upscope $end
$scope module int_signed_alu_inst $end
$var wire 8 '" a_s [7:0] $end
$var wire 8 (" b_s [7:0] $end
$var wire 2 )" op [1:0] $end
$var wire 8 *" b [7:0] $end
$var wire 8 +" a [7:0] $end
$var reg 9 ," addsub_tmp [8:0] $end
$var reg 8 -" div_tmp [7:0] $end
$var reg 6 ." flags [5:0] $end
$var reg 16 /" mul_tmp [15:0] $end
$var reg 8 0" rem_tmp [7:0] $end
$var reg 8 1" result [7:0] $end
$upscope $end
$scope module int_unsigned_alu_inst $end
$var wire 2 2" op [1:0] $end
$var wire 8 3" b [7:0] $end
$var wire 8 4" a [7:0] $end
$var reg 9 5" add_tmp [8:0] $end
$var reg 8 6" div_tmp [7:0] $end
$var reg 6 7" flags [5:0] $end
$var reg 16 8" mul_tmp [15:0] $end
$var reg 8 9" rem_tmp [7:0] $end
$var reg 8 :" result [7:0] $end
$var reg 9 ;" sub_tmp [8:0] $end
$upscope $end
$scope module minifloat_e4m3_addsub_inst $end
$var wire 1 <" op_sub $end
$var wire 8 =" b [7:0] $end
$var wire 8 >" a [7:0] $end
$var reg 22 ?" abs_sum [21:0] $end
$var reg 20 @" aligned_a [19:0] $end
$var reg 20 A" aligned_b [19:0] $end
$var reg 4 B" exp_a [3:0] $end
$var reg 4 C" exp_b [3:0] $end
$var reg 5 D" exp_diff [4:0] $end
$var reg 4 E" exp_work [3:0] $end
$var reg 6 F" flags [5:0] $end
$var reg 4 G" frac_a [3:0] $end
$var reg 4 H" frac_b [3:0] $end
$var reg 20 I" mag_a [19:0] $end
$var reg 20 J" mag_b [19:0] $end
$var reg 20 K" mag_work [19:0] $end
$var reg 8 L" result [7:0] $end
$var reg 21 M" shifted_pack [20:0] $end
$var reg 1 N" sign_a $end
$var reg 1 O" sign_b $end
$var reg 1 P" sign_b_eff $end
$var reg 1 Q" sign_res $end
$var reg 22 R" signed_a [21:0] $end
$var reg 22 S" signed_b [21:0] $end
$var reg 1 T" sticky $end
$var reg 22 U" sum_signed [21:0] $end
$var integer 32 V" norm_i [31:0] $end
$scope function shift_right_sticky $end
$var reg 5 W" amount [4:0] $end
$var reg 20 X" mask [19:0] $end
$var reg 20 Y" value [19:0] $end
$upscope $end
$upscope $end
$upscope $end
$scope module tp3_demo_vectors_inst $end
$var wire 2 Z" case_id [1:0] $end
$var wire 2 [" mode [1:0] $end
$var wire 2 \" op [1:0] $end
$var reg 8 ]" a [7:0] $end
$var reg 8 ^" b [7:0] $end
$var reg 8 _" expected [7:0] $end
$var reg 6 `" expected_flags [5:0] $end
$upscope $end
$scope module uart_tx_inst $end
$var wire 1 % clk $end
$var wire 8 a" data [7:0] $end
$var wire 1 & rst_n $end
$var wire 1 = start $end
$var reg 3 b" bit_index [2:0] $end
$var reg 1 , busy $end
$var reg 4 c" counter [3:0] $end
$var reg 1 + done $end
$var reg 8 d" shifter [7:0] $end
$var reg 2 e" state [1:0] $end
$var reg 1 ! tx $end
$upscope $end
$upscope $end
$scope task check $end
$var reg 1 f" condition $end
$var reg 1024 g" message [1023:0] $end
$upscope $end
$scope task check_char $end
$var reg 8 h" expected_char [7:0] $end
$var reg 1024 i" message [1023:0] $end
$var integer 32 j" index [31:0] $end
$upscope $end
$scope task read_line $end
$upscope $end
$scope task read_uart_byte $end
$var reg 8 k" value [7:0] $end
$var integer 32 l" bit_i [31:0] $end
$upscope $end
$scope task release_button $end
$var integer 32 m" index [31:0] $end
$upscope $end
$scope task start_button $end
$var integer 32 n" index [31:0] $end
$upscope $end
$scope task wait_uart_idle $end
$upscope $end
$upscope $end
$enddefinitions $end
#0
$dumpvars
bx n"
bx m"
bx l"
bx k"
bx j"
bx i"
bx h"
bx g"
xf"
bx e"
bx d"
bx c"
bx b"
bx a"
bx `"
bx _"
bx ^"
bx ]"
bx \"
bx ["
bx Z"
bx Y"
bx X"
bx W"
bx V"
bx U"
xT"
bx S"
bx R"
xQ"
xP"
xO"
xN"
bx M"
bx L"
bx K"
bx J"
bx I"
bx H"
bx G"
bx F"
bx E"
bx D"
bx C"
bx B"
bx A"
bx @"
bx ?"
bx >"
bx ="
x<"
bx ;"
bx :"
bx 9"
bx 8"
bx 7"
bx 6"
bx 5"
bx 4"
bx 3"
bx 2"
bx 1"
bx 0"
bx /"
bx ."
bx -"
bx ,"
bx +"
bx *"
bx )"
bx ("
bx '"
bx &"
bx %"
bx $"
bx #"
bx ""
bx !"
bx ~
bx }
bx |
bx {
bx z
bx y
bx x
bx w
bx v
bx u
bx t
bx s
bx r
bx q
bx p
bx o
bx n
bx m
bx l
bx k
bx j
bx i
bx h
xg
xf
xe
xd
xc
xb
xa
bx `
1_
x^
x]
x\
x[
xZ
xY
xX
bx W
1V
xU
xT
xS
xR
xQ
xP
xO
bx N
1M
xL
xK
xJ
xI
xH
xG
xF
bx E
1D
bx C
bx B
bx A
bx @
bx ?
bx >
x=
bx <
x;
x:
bx 9
bx 8
bx 7
bx 6
bx 5
bx 4
bx 3
bx 2
bx 1
bx 0
bx /
bx .
bx -
x,
x+
x*
b1111 )
bx (
b0 '
1&
0%
bx $
b1111 #
bx "
x!
$end
#1000
1*
b1110 "
b1110 .
b0 V"
0T"
b0 K"
b0 ?"
b0 U"
b0 S"
b0 R"
b0 M"
b0 A"
b0 @"
b0 J"
b0 I"
b0 D"
b1101 H"
b1100 G"
b0 E"
b0 C"
b1 B"
0Q"
0P"
0O"
0N"
b100010 o
b100010 F"
b0 n
b0 L"
b0 ~
b10001 $"
b0 ""
b0 !"
b0 |
b0 {
b0 %"
b10001 &"
b0 q
b0 }
b10001 p
b10001 #"
b0 0"
b0 -"
b0 /"
b10001 ,"
b0 m
b0 ."
b10001 l
b10001 1"
b0 9"
b0 6"
b0 8"
b0 ;"
b10001 5"
b0 k
b0 7"
b10001 j
b10001 :"
b0 /
b0 t
b10001 -
b10001 u
b0 0
b0 `"
b10001 1
b10001 _"
b101 ("
b101 w
b101 4
b101 r
b101 y
b101 *"
b101 3"
b101 ="
b101 ^"
b1100 '"
b1100 v
b1100 5
b1100 s
b1100 z
b1100 +"
b1100 4"
b1100 >"
b1100 ]"
b0 E
0I
0H
0G
0F
1J
1L
1K
b0 N
0R
0Q
0P
0O
1S
1U
1T
b0 W
0[
0Z
0Y
0X
1\
1^
1]
b0 `
b0 2
0d
b0 3
0c
0b
0a
1e
1g
1f
b0 c"
b0 d"
b0 b"
b0 e"
0+
0,
1!
b0 <
b0 a"
0=
0;
1:
b0 8
b0 6
b0 Z"
0<"
b0 9
b0 i
b0 x
b0 )"
b0 2"
b0 \"
b0 7
b0 h
b0 ["
0&
#5000
1%
#10000
0%
#15000
1%
#20000
0%
#25000
1%
#30000
0%
#35000
1%
#40000
0%
#45000
1=
b1010100 <
b1010100 a"
0:
1;
b0 @
b0 k"
b0 (
1&
1%
#50000
0%
#55000
b1 e"
0!
b1010100 d"
1,
0=
1%
#60000
0%
#65000
b1 c"
1%
#70000
0%
#75000
b10 c"
1%
#80000
0%
#85000
b11 c"
1%
#90000
0%
#95000
b100 c"
1%
#100000
0%
#105000
b101 c"
1%
#110000
0%
#115000
b110 c"
1%
#120000
0%
#125000
b111 c"
1%
#130000
0%
#135000
b10 e"
b0 c"
1%
#140000
0%
#145000
b1 c"
1%
#150000
0%
#155000
b10 c"
1%
#160000
0%
#165000
b11 c"
1%
#170000
0%
#175000
b100 c"
b0 l"
1%
#180000
0%
#185000
b101 c"
1%
#190000
0%
#195000
b110 c"
1%
#200000
0%
#205000
b111 c"
1%
#210000
0%
#215000
b101010 d"
b1 b"
b0 c"
1%
#220000
0%
#225000
b1 c"
1%
#230000
0%
#235000
b10 c"
1%
#240000
0%
#245000
b11 c"
1%
#250000
0%
#255000
b100 c"
b1 l"
1%
#260000
0%
#265000
b101 c"
1%
#270000
0%
#275000
b110 c"
1%
#280000
0%
#285000
b111 c"
1%
#290000
0%
#295000
1!
b10101 d"
b10 b"
b0 c"
1%
#300000
0%
#305000
b1 c"
1%
#310000
0%
#315000
b10 c"
1%
#320000
0%
#325000
b11 c"
1%
#330000
0%
#335000
b100 c"
b100 k"
b10 l"
1%
#340000
0%
#345000
b101 c"
1%
#350000
0%
#355000
b110 c"
1%
#360000
0%
#365000
b111 c"
1%
#370000
0%
#375000
0!
b1010 d"
b11 b"
b0 c"
1%
#380000
0%
#385000
b1 c"
1%
#390000
0%
#395000
b10 c"
1%
#400000
0%
#405000
b11 c"
1%
#410000
0%
#415000
b100 c"
b11 l"
1%
#420000
0%
#425000
b101 c"
1%
#430000
0%
#435000
b110 c"
1%
#440000
0%
#445000
b111 c"
1%
#450000
0%
#455000
1!
b101 d"
b100 b"
b0 c"
1%
#460000
0%
#465000
b1 c"
1%
#470000
0%
#475000
b10 c"
1%
#480000
0%
#485000
b11 c"
1%
#490000
0%
#495000
b100 c"
b10100 k"
b100 l"
1%
#500000
0%
#505000
b101 c"
1%
#510000
0%
#515000
b110 c"
1%
#520000
0%
#525000
b111 c"
1%
#530000
0%
#535000
0!
b10 d"
b101 b"
b0 c"
1%
#540000
0%
#545000
b1 c"
1%
#550000
0%
#555000
b10 c"
1%
#560000
0%
#565000
b11 c"
1%
#570000
0%
#575000
b100 c"
b101 l"
1%
#580000
0%
#585000
b101 c"
1%
#590000
0%
#595000
b110 c"
1%
#600000
0%
#605000
b111 c"
1%
#610000
0%
#615000
1!
b1 d"
b110 b"
b0 c"
1%
#620000
0%
#625000
b1 c"
1%
#630000
0%
#635000
b10 c"
1%
#640000
0%
#645000
b11 c"
1%
#650000
0%
#655000
b100 c"
b1010100 k"
b110 l"
1%
#660000
0%
#665000
b101 c"
1%
#670000
0%
#675000
b110 c"
1%
#680000
0%
#685000
b111 c"
1%
#690000
0%
#695000
0!
b0 d"
b111 b"
b0 c"
1%
#700000
0%
#705000
b1 c"
1%
#710000
0%
#715000
b10 c"
1%
#720000
0%
#725000
b11 c"
1%
#730000
0%
#735000
b100 c"
b111 l"
1%
#740000
0%
#745000
b101 c"
1%
#750000
0%
#755000
b110 c"
1%
#760000
0%
#765000
b111 c"
1%
#770000
0%
#775000
b11 e"
1!
b0 c"
1%
#780000
0%
#785000
b1 c"
1%
#790000
0%
#795000
b10 c"
1%
#800000
0%
#805000
b11 c"
1%
#810000
0%
#815000
b100 c"
b0 k"
b1 (
b1010100 $
b1000 l"
1%
#820000
0%
#825000
b101 c"
1%
#830000
0%
#835000
b110 c"
1%
#840000
0%
#845000
b111 c"
1%
#850000
0%
#855000
b0 e"
1+
0,
b0 c"
1%
#860000
0%
#865000
1=
b1010000 <
b1010000 a"
b1 8
b0 b"
0+
b1 @
1%
#870000
0%
#875000
b1 e"
0!
b1010000 d"
1,
0=
1%
#880000
0%
#885000
b1 c"
1%
#890000
0%
#895000
b10 c"
1%
#900000
0%
#905000
b11 c"
1%
#910000
0%
#915000
b100 c"
1%
#920000
0%
#925000
b101 c"
1%
#930000
0%
#935000
b110 c"
1%
#940000
0%
#945000
b111 c"
1%
#950000
0%
#955000
b10 e"
b0 c"
1%
#960000
0%
#965000
b1 c"
1%
#970000
0%
#975000
b10 c"
1%
#980000
0%
#985000
b11 c"
1%
#990000
0%
#995000
b100 c"
b0 l"
1%
#1000000
0%
#1005000
b101 c"
1%
#1010000
0%
#1015000
b110 c"
1%
#1020000
0%
#1025000
b111 c"
1%
#1030000
0%
#1035000
b101000 d"
b1 b"
b0 c"
1%
#1040000
0%
#1045000
b1 c"
1%
#1050000
0%
#1055000
b10 c"
1%
#1060000
0%
#1065000
b11 c"
1%
#1070000
0%
#1075000
b100 c"
b1 l"
1%
#1080000
0%
#1085000
b101 c"
1%
#1090000
0%
#1095000
b110 c"
1%
#1100000
0%
#1105000
b111 c"
1%
#1110000
0%
#1115000
b10100 d"
b10 b"
b0 c"
1%
#1120000
0%
#1125000
b1 c"
1%
#1130000
0%
#1135000
b10 c"
1%
#1140000
0%
#1145000
b11 c"
1%
#1150000
0%
#1155000
b100 c"
b10 l"
1%
#1160000
0%
#1165000
b101 c"
1%
#1170000
0%
#1175000
b110 c"
1%
#1180000
0%
#1185000
b111 c"
1%
#1190000
0%
#1195000
b1010 d"
b11 b"
b0 c"
1%
#1200000
0%
#1205000
b1 c"
1%
#1210000
0%
#1215000
b10 c"
1%
#1220000
0%
#1225000
b11 c"
1%
#1230000
0%
#1235000
b100 c"
b11 l"
1%
#1240000
0%
#1245000
b101 c"
1%
#1250000
0%
#1255000
b110 c"
1%
#1260000
0%
#1265000
b111 c"
1%
#1270000
0%
#1275000
1!
b101 d"
b100 b"
b0 c"
1%
#1280000
0%
#1285000
b1 c"
1%
#1290000
0%
#1295000
b10 c"
1%
#1300000
0%
#1305000
b11 c"
1%
#1310000
0%
#1315000
b100 c"
b10000 k"
b100 l"
1%
#1320000
0%
#1325000
b101 c"
1%
#1330000
0%
#1335000
b110 c"
1%
#1340000
0%
#1345000
b111 c"
1%
#1350000
0%
#1355000
0!
b10 d"
b101 b"
b0 c"
1%
#1360000
0%
#1365000
b1 c"
1%
#1370000
0%
#1375000
b10 c"
1%
#1380000
0%
#1385000
b11 c"
1%
#1390000
0%
#1395000
b100 c"
b101 l"
1%
#1400000
0%
#1405000
b101 c"
1%
#1410000
0%
#1415000
b110 c"
1%
#1420000
0%
#1425000
b111 c"
1%
#1430000
0%
#1435000
1!
b1 d"
b110 b"
b0 c"
1%
#1440000
0%
#1445000
b1 c"
1%
#1450000
0%
#1455000
b10 c"
1%
#1460000
0%
#1465000
b11 c"
1%
#1470000
0%
#1475000
b100 c"
b1010000 k"
b110 l"
1%
#1480000
0%
#1485000
b101 c"
1%
#1490000
0%
#1495000
b110 c"
1%
#1500000
0%
#1505000
b111 c"
1%
#1510000
0%
#1515000
0!
b0 d"
b111 b"
b0 c"
1%
#1520000
0%
#1525000
b1 c"
1%
#1530000
0%
#1535000
b10 c"
1%
#1540000
0%
#1545000
b11 c"
1%
#1550000
0%
#1555000
b100 c"
b111 l"
1%
#1560000
0%
#1565000
b101 c"
1%
#1570000
0%
#1575000
b110 c"
1%
#1580000
0%
#1585000
b111 c"
1%
#1590000
0%
#1595000
b11 e"
1!
b0 c"
1%
#1600000
0%
#1605000
b1 c"
1%
#1610000
0%
#1615000
b10 c"
1%
#1620000
0%
#1625000
b11 c"
1%
#1630000
0%
#1635000
b100 c"
b0 k"
b10 (
b1010000 $
b1000 l"
1%
#1640000
0%
#1645000
b101 c"
1%
#1650000
0%
#1655000
b110 c"
1%
#1660000
0%
#1665000
b111 c"
1%
#1670000
0%
#1675000
b0 e"
1+
0,
b0 c"
1%
#1680000
0%
#1685000
1=
b110011 <
b110011 a"
b10 8
b0 b"
0+
b10 @
1%
#1690000
0%
#1695000
b1 e"
0!
b110011 d"
1,
0=
1%
#1700000
0%
#1705000
b1 c"
1%
#1710000
0%
#1715000
b10 c"
1%
#1720000
0%
#1725000
b11 c"
1%
#1730000
0%
#1735000
b100 c"
1%
#1740000
0%
#1745000
b101 c"
1%
#1750000
0%
#1755000
b110 c"
1%
#1760000
0%
#1765000
b111 c"
1%
#1770000
0%
#1775000
b10 e"
1!
b0 c"
1%
#1780000
0%
#1785000
b1 c"
1%
#1790000
0%
#1795000
b10 c"
1%
#1800000
0%
#1805000
b11 c"
1%
#1810000
0%
#1815000
b100 c"
b1 k"
b0 l"
1%
#1820000
0%
#1825000
b101 c"
1%
#1830000
0%
#1835000
b110 c"
1%
#1840000
0%
#1845000
b111 c"
1%
#1850000
0%
#1855000
b11001 d"
b1 b"
b0 c"
1%
#1860000
0%
#1865000
b1 c"
1%
#1870000
0%
#1875000
b10 c"
1%
#1880000
0%
#1885000
b11 c"
1%
#1890000
0%
#1895000
b100 c"
b11 k"
b1 l"
1%
#1900000
0%
#1905000
b101 c"
1%
#1910000
0%
#1915000
b110 c"
1%
#1920000
0%
#1925000
b111 c"
1%
#1930000
0%
#1935000
0!
b1100 d"
b10 b"
b0 c"
1%
#1940000
0%
#1945000
b1 c"
1%
#1950000
0%
#1955000
b10 c"
1%
#1960000
0%
#1965000
b11 c"
1%
#1970000
0%
#1975000
b100 c"
b10 l"
1%
#1980000
0%
#1985000
b101 c"
1%
#1990000
0%
#1995000
b110 c"
1%
#2000000
0%
#2005000
b111 c"
1%
#2010000
0%
#2015000
b110 d"
b11 b"
b0 c"
1%
#2020000
0%
#2025000
b1 c"
1%
#2030000
0%
#2035000
b10 c"
1%
#2040000
0%
#2045000
b11 c"
1%
#2050000
0%
#2055000
b100 c"
b11 l"
1%
#2060000
0%
#2065000
b101 c"
1%
#2070000
0%
#2075000
b110 c"
1%
#2080000
0%
#2085000
b111 c"
1%
#2090000
0%
#2095000
1!
b11 d"
b100 b"
b0 c"
1%
#2100000
0%
#2105000
b1 c"
1%
#2110000
0%
#2115000
b10 c"
1%
#2120000
0%
#2125000
b11 c"
1%
#2130000
0%
#2135000
b100 c"
b10011 k"
b100 l"
1%
#2140000
0%
#2145000
b101 c"
1%
#2150000
0%
#2155000
b110 c"
1%
#2160000
0%
#2165000
b111 c"
1%
#2170000
0%
#2175000
b1 d"
b101 b"
b0 c"
1%
#2180000
0%
#2185000
b1 c"
1%
#2190000
0%
#2195000
b10 c"
1%
#2200000
0%
#2205000
b11 c"
1%
#2210000
0%
#2215000
b100 c"
b110011 k"
b101 l"
1%
#2220000
0%
#2225000
b101 c"
1%
#2230000
0%
#2235000
b110 c"
1%
#2240000
0%
#2245000
b111 c"
1%
#2250000
0%
#2255000
0!
b0 d"
b110 b"
b0 c"
1%
#2260000
0%
#2265000
b1 c"
1%
#2270000
0%
#2275000
b10 c"
1%
#2280000
0%
#2285000
b11 c"
1%
#2290000
0%
#2295000
b100 c"
b110 l"
1%
#2300000
0%
#2305000
b101 c"
1%
#2310000
0%
#2315000
b110 c"
1%
#2320000
0%
#2325000
b111 c"
1%
#2330000
0%
#2335000
b111 b"
b0 c"
1%
#2340000
0%
#2345000
b1 c"
1%
#2350000
0%
#2355000
b10 c"
1%
#2360000
0%
#2365000
b11 c"
1%
#2370000
0%
#2375000
b100 c"
b111 l"
1%
#2380000
0%
#2385000
b101 c"
1%
#2390000
0%
#2395000
b110 c"
1%
#2400000
0%
#2405000
b111 c"
1%
#2410000
0%
#2415000
b11 e"
1!
b0 c"
1%
#2420000
0%
#2425000
b1 c"
1%
#2430000
0%
#2435000
b10 c"
1%
#2440000
0%
#2445000
b11 c"
1%
#2450000
0%
#2455000
b100 c"
b0 k"
b11 (
b110011 $
b1000 l"
1%
#2460000
0%
#2465000
b101 c"
1%
#2470000
0%
#2475000
b110 c"
1%
#2480000
0%
#2485000
b111 c"
1%
#2490000
0%
#2495000
b0 e"
1+
0,
b0 c"
1%
#2500000
0%
#2505000
1=
b100000 <
b100000 a"
b11 8
b0 b"
0+
b11 @
1%
#2510000
0%
#2515000
b1 e"
0!
b100000 d"
1,
0=
1%
#2520000
0%
#2525000
b1 c"
1%
#2530000
0%
#2535000
b10 c"
1%
#2540000
0%
#2545000
b11 c"
1%
#2550000
0%
#2555000
b100 c"
1%
#2560000
0%
#2565000
b101 c"
1%
#2570000
0%
#2575000
b110 c"
1%
#2580000
0%
#2585000
b111 c"
1%
#2590000
0%
#2595000
b10 e"
b0 c"
1%
#2600000
0%
#2605000
b1 c"
1%
#2610000
0%
#2615000
b10 c"
1%
#2620000
0%
#2625000
b11 c"
1%
#2630000
0%
#2635000
b100 c"
b0 l"
1%
#2640000
0%
#2645000
b101 c"
1%
#2650000
0%
#2655000
b110 c"
1%
#2660000
0%
#2665000
b111 c"
1%
#2670000
0%
#2675000
b10000 d"
b1 b"
b0 c"
1%
#2680000
0%
#2685000
b1 c"
1%
#2690000
0%
#2695000
b10 c"
1%
#2700000
0%
#2705000
b11 c"
1%
#2710000
0%
#2715000
b100 c"
b1 l"
1%
#2720000
0%
#2725000
b101 c"
1%
#2730000
0%
#2735000
b110 c"
1%
#2740000
0%
#2745000
b111 c"
1%
#2750000
0%
#2755000
b1000 d"
b10 b"
b0 c"
1%
#2760000
0%
#2765000
b1 c"
1%
#2770000
0%
#2775000
b10 c"
1%
#2780000
0%
#2785000
b11 c"
1%
#2790000
0%
#2795000
b100 c"
b10 l"
1%
#2800000
0%
#2805000
b101 c"
1%
#2810000
0%
#2815000
b110 c"
1%
#2820000
0%
#2825000
b111 c"
1%
#2830000
0%
#2835000
b100 d"
b11 b"
b0 c"
1%
#2840000
0%
#2845000
b1 c"
1%
#2850000
0%
#2855000
b10 c"
1%
#2860000
0%
#2865000
b11 c"
1%
#2870000
0%
#2875000
b100 c"
b11 l"
1%
#2880000
0%
#2885000
b101 c"
1%
#2890000
0%
#2895000
b110 c"
1%
#2900000
0%
#2905000
b111 c"
1%
#2910000
0%
#2915000
b10 d"
b100 b"
b0 c"
1%
#2920000
0%
#2925000
b1 c"
1%
#2930000
0%
#2935000
b10 c"
1%
#2940000
0%
#2945000
b11 c"
1%
#2950000
0%
#2955000
b100 c"
b100 l"
1%
#2960000
0%
#2965000
b101 c"
1%
#2970000
0%
#2975000
b110 c"
1%
#2980000
0%
#2985000
b111 c"
1%
#2990000
0%
#2995000
1!
b1 d"
b101 b"
b0 c"
1%
#3000000
0%
#3005000
b1 c"
1%
#3010000
0%
#3015000
b10 c"
1%
#3020000
0%
#3025000
b11 c"
1%
#3030000
0%
#3035000
b100 c"
b100000 k"
b101 l"
1%
#3040000
0%
#3045000
b101 c"
1%
#3050000
0%
#3055000
b110 c"
1%
#3060000
0%
#3065000
b111 c"
1%
#3070000
0%
#3075000
0!
b0 d"
b110 b"
b0 c"
1%
#3080000
0%
#3085000
b1 c"
1%
#3090000
0%
#3095000
b10 c"
1%
#3100000
0%
#3105000
b11 c"
1%
#3110000
0%
#3115000
b100 c"
b110 l"
1%
#3120000
0%
#3125000
b101 c"
1%
#3130000
0%
#3135000
b110 c"
1%
#3140000
0%
#3145000
b111 c"
1%
#3150000
0%
#3155000
b111 b"
b0 c"
1%
#3160000
0%
#3165000
b1 c"
1%
#3170000
0%
#3175000
b10 c"
1%
#3180000
0%
#3185000
b11 c"
1%
#3190000
0%
#3195000
b100 c"
b111 l"
1%
#3200000
0%
#3205000
b101 c"
1%
#3210000
0%
#3215000
b110 c"
1%
#3220000
0%
#3225000
b111 c"
1%
#3230000
0%
#3235000
b11 e"
1!
b0 c"
1%
#3240000
0%
#3245000
b1 c"
1%
#3250000
0%
#3255000
b10 c"
1%
#3260000
0%
#3265000
b11 c"
1%
#3270000
0%
#3275000
b100 c"
b0 k"
b100 (
b100000 $
b1000 l"
1%
#3280000
0%
#3285000
b101 c"
1%
#3290000
0%
#3295000
b110 c"
1%
#3300000
0%
#3305000
b111 c"
1%
#3310000
0%
#3315000
b0 e"
1+
0,
b0 c"
1%
#3320000
0%
#3325000
1=
b1101101 <
b1101101 a"
b100 8
b0 b"
0+
b100 @
1%
#3330000
0%
#3335000
b1 e"
0!
b1101101 d"
1,
0=
1%
#3340000
0%
#3345000
b1 c"
1%
#3350000
0%
#3355000
b10 c"
1%
#3360000
0%
#3365000
b11 c"
1%
#3370000
0%
#3375000
b100 c"
1%
#3380000
0%
#3385000
b101 c"
1%
#3390000
0%
#3395000
b110 c"
1%
#3400000
0%
#3405000
b111 c"
1%
#3410000
0%
#3415000
b10 e"
1!
b0 c"
1%
#3420000
0%
#3425000
b1 c"
1%
#3430000
0%
#3435000
b10 c"
1%
#3440000
0%
#3445000
b11 c"
1%
#3450000
0%
#3455000
b100 c"
b1 k"
b0 l"
1%
#3460000
0%
#3465000
b101 c"
1%
#3470000
0%
#3475000
b110 c"
1%
#3480000
0%
#3485000
b111 c"
1%
#3490000
0%
#3495000
0!
b110110 d"
b1 b"
b0 c"
1%
#3500000
0%
#3505000
b1 c"
1%
#3510000
0%
#3515000
b10 c"
1%
#3520000
0%
#3525000
b11 c"
1%
#3530000
0%
#3535000
b100 c"
b1 l"
1%
#3540000
0%
#3545000
b101 c"
1%
#3550000
0%
#3555000
b110 c"
1%
#3560000
0%
#3565000
b111 c"
1%
#3570000
0%
#3575000
1!
b11011 d"
b10 b"
b0 c"
1%
#3580000
0%
#3585000
b1 c"
1%
#3590000
0%
#3595000
b10 c"
1%
#3600000
0%
#3605000
b11 c"
1%
#3610000
0%
#3615000
b100 c"
b101 k"
b10 l"
1%
#3620000
0%
#3625000
b101 c"
1%
#3630000
0%
#3635000
b110 c"
1%
#3640000
0%
#3645000
b111 c"
1%
#3650000
0%
#3655000
b1101 d"
b11 b"
b0 c"
1%
#3660000
0%
#3665000
b1 c"
1%
#3670000
0%
#3675000
b10 c"
1%
#3680000
0%
#3685000
b11 c"
1%
#3690000
0%
#3695000
b100 c"
b1101 k"
b11 l"
1%
#3700000
0%
#3705000
b101 c"
1%
#3710000
0%
#3715000
b110 c"
1%
#3720000
0%
#3725000
b111 c"
1%
#3730000
0%
#3735000
0!
b110 d"
b100 b"
b0 c"
1%
#3740000
0%
#3745000
b1 c"
1%
#3750000
0%
#3755000
b10 c"
1%
#3760000
0%
