dr1/at/sim/vcd/access_control_tang_nano_9k_top.vcd
$date
	Sat Apr  4 19:22:20 2026
$end
$version
	Icarus Verilog
$end
$timescale
	1ps
$end
$scope module tb_access_control_tang_nano_9k_top $end
$var wire 6 ! led [5:0] $end
$var wire 4 " code_led [3:0] $end
$var reg 1 # btn_confirm_n $end
$var reg 1 $ btn_reset_n $end
$var reg 4 % code_btn [3:0] $end
$var reg 1 & sys_clk $end
$scope module dut $end
$var wire 1 ' btn_confirm $end
$var wire 1 # btn_confirm_n $end
$var wire 1 ( btn_reset $end
$var wire 1 $ btn_reset_n $end
$var wire 4 ) code_btn [3:0] $end
$var wire 4 * code_led [3:0] $end
$var wire 1 & sys_clk $end
$var wire 1 + led_denied $end
$var wire 3 , led_count [2:0] $end
$var wire 1 - led_authorized $end
$var wire 1 . led_attempt $end
$var wire 6 / led [5:0] $end
$var wire 4 0 code_btn_db [3:0] $end
$var wire 1 1 btn_reset_db $end
$var wire 1 2 btn_confirm_db $end
$var reg 4 3 code_btn_db_d [3:0] $end
$var reg 4 4 code_state [3:0] $end
$scope module access_control_inst $end
$var wire 1 & clk $end
$var wire 4 5 code_btn [3:0] $end
$var wire 1 6 confirm_pulse $end
$var wire 1 . led_attempt $end
$var wire 3 7 led_count [2:0] $end
$var wire 1 8 code_valid $end
$var wire 1 1 btn_reset $end
$var wire 1 2 btn_confirm $end
$var reg 3 9 attempt_count [2:0] $end
$var reg 4 : code_meta [3:0] $end
$var reg 4 ; code_sync [3:0] $end
$var reg 1 < confirm_meta $end
$var reg 1 = confirm_sync $end
$var reg 1 > confirm_sync_d $end
$var reg 1 - led_authorized $end
$var reg 1 + led_denied $end
$var reg 1 ? reset_meta $end
$var reg 1 @ reset_sync $end
$scope module validator $end
$var wire 4 A code_in [3:0] $end
$var wire 1 8 code_valid $end
$upscope $end
$upscope $end
$scope module code_btn_0_debouncer $end
$var wire 1 & clk $end
$var wire 1 B noisy_in $end
$var reg 1 C debounced_out $end
$var reg 1 D sampled_state $end
$var reg 1 E stable_counter $end
$upscope $end
$scope module code_btn_1_debouncer $end
$var wire 1 & clk $end
$var wire 1 F noisy_in $end
$var reg 1 G debounced_out $end
$var reg 1 H sampled_state $end
$var reg 1 I stable_counter $end
$upscope $end
$scope module code_btn_2_debouncer $end
$var wire 1 & clk $end
$var wire 1 J noisy_in $end
$var reg 1 K debounced_out $end
$var reg 1 L sampled_state $end
$var reg 1 M stable_counter $end
$upscope $end
$scope module code_btn_3_debouncer $end
$var wire 1 & clk $end
$var wire 1 N noisy_in $end
$var reg 1 O debounced_out $end
$var reg 1 P sampled_state $end
$var reg 1 Q stable_counter $end
$upscope $end
$scope module confirm_debouncer $end
$var wire 1 & clk $end
$var wire 1 ' noisy_in $end
$var reg 1 2 debounced_out $end
$var reg 1 R sampled_state $end
$var reg 1 S stable_counter $end
$upscope $end
$scope module reset_debouncer $end
$var wire 1 & clk $end
$var wire 1 ( noisy_in $end
$var reg 1 1 debounced_out $end
$var reg 1 T sampled_state $end
$var reg 1 U stable_counter $end
$upscope $end
$upscope $end
$scope task apply_reset $end
$upscope $end
$scope task attempt_code $end
$upscope $end
$scope task confirm_attempt $end
$upscope $end
$scope task expect_leds $end
$upscope $end
$scope task press_code_button $end
$upscope $end
$scope task wait_cycles $end
$upscope $end
$upscope $end
$enddefinitions $end
#0
$dumpvars
0U
0T
0S
0R
0Q
0P
0O
0N
0M
0L
0K
0J
0I
0H
0G
0F
0E
0D
0C
0B
bx A
x@
x?
x>
x=
x<
bx ;
bx :
bx 9
x8
bx 7
x6
b0 5
b0 4
b0 3
02
01
b0 0
bx /
x.
x-
bx ,
x+
b0 *
b0 )
0(
0'
0&
b0 %
1$
1#
b0 "
bx !
$end
#5000
0?
0<
b0 :
1&
#10000
0&
#15000
bx1xx !
bx1xx /
08
0.
06
0@
0=
b0 ;
b0 A
1&
#20000
0&
#25000
0>
1&
#30000
0&
#35000
1&
#40000
0&
#45000
1&
#50000
0&
#55000
1&
#56000
1(
0$
#60000
0&
#65000
1U
1&
#70000
0&
#75000
0U
11
1T
1&
#80000
0&
#85000
1?
1&
#90000
0&
#95000
1@
1&
#100000
0&
#105000
b111111 !
b111111 /
0+
0-
b0 ,
b0 7
b0 9
1&
#110000
0&
#115000
1&
#120000
0&
#125000
1&
#130000
0&
#135000
1&
#136000
0(
1$
#140000
0&
#145000
1U
1&
#150000
0&
#155000
0U
01
0T
1&
#160000
0&
#165000
0?
1&
#170000
0&
#175000
0@
1&
#180000
0&
#185000
1&
#190000
0&
#195000
1&
#200000
0&
#205000
1&
#210000
0&
#215000
1&
#216000
1N
b1000 %
b1000 )
#220000
0&
#225000
1Q
1&
#230000
0&
#235000
0Q
b1000 0
1O
1P
1&
#240000
0&
#245000
b1000 "
b1000 *
b1000 4
b1000 5
b1000 3
1&
#250000
0&
#255000
b1000 :
1&
#260000
0&
#265000
b1000 ;
b1000 A
1&
#270000
0&
#275000
1&
#276000
0N
b0 %
b0 )
#280000
0&
#285000
1Q
1&
#290000
0&
#295000
0Q
b0 0
0O
0P
1&
#300000
0&
#305000
b0 3
1&
#310000
0&
#315000
1&
#320000
0&
#325000
1&
#330000
0&
#335000
1&
#336000
1F
b10 %
b10 )
#340000
0&
#345000
1I
1&
#350000
0&
#355000
0I
b10 0
1G
1H
1&
#360000
0&
#365000
b1010 "
b1010 *
b1010 4
b1010 5
b10 3
1&
#370000
0&
#375000
b1010 :
1&
#380000
0&
#385000
b1010 ;
b1010 A
1&
#390000
0&
#395000
1&
#396000
0F
b0 %
b0 )
#400000
0&
#405000
1I
1&
#410000
0&
#415000
0I
b0 0
0G
0H
1&
#420000
0&
#425000
b0 3
1&
#430000
0&
#435000
1&
#440000
0&
#445000
1&
#450000
0&
#455000
1&
#456000
1B
b1 %
b1 )
#460000
0&
#465000
1E
1&
#470000
0&
#475000
0E
b1 0
1C
1D
1&
#480000
0&
#485000
b1011 "
b1011 *
b1011 4
b1011 5
b1 3
1&
#490000
0&
#495000
b1011 :
1&
#500000
0&
#505000
18
b1011 ;
b1011 A
1&
#510000
0&
#515000
1&
#516000
0B
b0 %
b0 )
#520000
0&
#525000
1E
1&
#530000
0&
#535000
0E
b0 0
0C
0D
1&
#540000
0&
#545000
b0 3
1&
#550000
0&
#555000
1&
#560000
0&
#565000
1&
#570000
0&
#575000
1&
#580000
0&
#585000
1&
#590000
0&
#595000
1&
#600000
0&
#605000
1&
#610000
0&
#615000
1&
#616000
1'
0#
#620000
0&
#625000
1S
1&
#630000
0&
#635000
0S
12
1R
1&
#640000
0&
#645000
1<
1&
#650000
0&
#655000
b111011 !
b111011 /
1.
16
1=
1&
#660000
0&
#665000
06
b110010 !
b110010 /
1>
1-
b1 ,
b1 7
b1 9
1&
#670000
0&
#675000
1&
#680000
0&
#685000
1&
#690000
0&
#695000
1&
#696000
0'
1#
#700000
0&
#705000
1S
1&
#710000
0&
#715000
0S
02
0R
1&
#720000
0&
#725000
0<
1&
#730000
0&
#735000
b110110 !
b110110 /
0.
0=
1&
#740000
0&
#745000
0>
1&
#750000
0&
#755000
1&
#760000
0&
#765000
1&
#770000
0&
#775000
1&
#776000
1B
b1 %
b1 )
#780000
0&
#785000
1E
1&
#790000
0&
#795000
0E
b1 0
1C
1D
1&
#800000
0&
#805000
b1010 "
b1010 *
b1010 4
b1010 5
b1 3
1&
#810000
0&
#815000
b1010 :
1&
#820000
0&
#825000
08
b1010 ;
b1010 A
1&
#830000
0&
#835000
1&
#836000
0B
b0 %
b0 )
#840000
0&
#845000
1E
1&
#850000
0&
#855000
0E
b0 0
0C
0D
1&
#860000
0&
#865000
b0 3
1&
#870000
0&
#875000
1&
#880000
0&
#885000
1&
#890000
0&
#895000
1&
#900000
0&
#905000
1&
#910000
0&
#915000
1&
#920000
0&
#925000
1&
#930000
0&
#935000
1&
#936000
1'
0#
#940000
0&
#945000
1S
1&
#950000
0&
#955000
0S
12
1R
1&
#960000
0&
#965000
1<
1&
#970000
0&
#975000
b110010 !
b110010 /
1.
16
1=
1&
#980000
0&
#985000
06
b101001 !
b101001 /
1>
1+
0-
b10 ,
b10 7
b10 9
1&
#990000
0&
#995000
1&
#1000000
0&
#1005000
1&
#1010000
0&
#1015000
1&
#1016000
0'
1#
#1020000
0&
#1025000
1S
1&
#1030000
0&
#1035000
0S
02
0R
1&
#1040000
0&
#1045000
0<
1&
#1050000
0&
#1055000
b101101 !
b101101 /
0.
0=
1&
#1060000
0&
#1065000
0>
1&
#1070000
0&
#1075000
1&
#1080000
0&
#1085000
1&
#1090000
0&
#1095000
1&
#1096000
1B
b1 %
b1 )
#1100000
0&
#1105000
1E
1&
#1110000
0&
#1115000
0E
b1 0
1C
1D
1&
#1120000
0&
#1125000
b1011 "
b1011 *
b1011 4
b1011 5
b1 3
1&
#1130000
0&
#1135000
b1011 :
1&
#1140000
0&
#1145000
18
b1011 ;
b1011 A
1&
#1150000
0&
#1155000
1&
#1156000
0B
b0 %
b0 )
#1160000
0&
#1165000
1E
1&
#1170000
0&
#1175000
0E
b0 0
0C
0D
1&
#1180000
0&
#1185000
b0 3
1&
#1190000
0&
#1195000
1&
#1200000
0&
#1205000
1&
#1210000
0&
#1215000
1&
#1216000
1J
b100 %
b100 )
#1220000
0&
#1225000
1M
1&
#1230000
0&
#1235000
0M
b100 0
1K
1L
1&
#1240000
0&
#1245000
b1111 "
b1111 *
b1111 4
b1111 5
b100 3
1&
#1250000
0&
#1255000
b1111 :
1&
#1260000
0&
#1265000
08
b1111 ;
b1111 A
1&
#1270000
0&
#1275000
1&
#1276000
0J
b0 %
b0 )
#1280000
0&
#1285000
1M
1&
#1290000
0&
#1295000
0M
b0 0
0K
0L
1&
#1300000
0&
#1305000
b0 3
1&
#1310000
0&
#1315000
1&
#1320000
0&
#1325000
1&
#1330000
0&
#1335000
1&
#1340000
0&
#1345000
1&
#1350000
0&
#1355000
1&
#1360000
0&
#1365000
1&
#1370000
0&
#1375000
1&
#1376000
1'
0#
#1380000
0&
#1385000
1S
1&
#1390000
0&
#1395000
0S
12
1R
1&
#1400000
0&
#1405000
1<
1&
#1410000
0&
#1415000
b101001 !
b101001 /
1.
16
1=
1&
#1420000
0&
#1425000
06
b100001 !
b100001 /
1>
b11 ,
b11 7
b11 9
1&
#1430000
0&
#1435000
1&
#1440000
0&
#1445000
1&
#1450000
0&
#1455000
1&
#1456000
0'
1#
#1460000
0&
#1465000
1S
1&
#1470000
0&
#1475000
0S
02
0R
1&
#1480000
0&
#1485000
0<
1&
#1490000
0&
#1495000
b100101 !
b100101 /
0.
0=
1&
#1500000
0&
#1505000
0>
1&
#1510000
0&
#1515000
1&
#1520000
0&
#1525000
1&
#1530000
0&
#1535000
1&
#1536000
1(
0$
#1540000
0&
#1545000
1U
1&
#1550000
0&
#1555000
0U
11
1T
1&
#1560000
0&
#1565000
1?
b0 "
b0 *
b0 4
b0 5
1&
#1570000
0&
#1575000
1@
b0 :
1&
#1580000
0&
#1585000
b111111 !
b111111 /
b0 ;
b0 A
0+
b0 ,
b0 7
b0 9
1&
#1590000
0&
#1595000
1&
#1600000
0&
#1605000
1&
#1610000
0&
#1615000
1&
#1616000
0(
1$
#1620000
0&
#1625000
1U
1&
#1630000
0&
#1635000
0U
01
0T
1&
#1640000
0&
#1645000
0?
1&
#1650000
0&
#1655000
0@
1&
